id,no,date,county,state,lng,lat,,,,,,,,,,,,,,,,,,,,,
1,NO.1,1/21/20,Snohomish,WA,-121.6963,48.047349,,,,,,,,,,,,,,,,,,,,,
2,NO.2,1/24/20,Cook,IL,-87.816823,41.840149,,,,,,,,,,,,,,,,,,,,,
3,NO.3,1/26/20,Orange,CA,-117.760595,33.703222,,,,,,,,,,,,,,,,,,,,,
4,NO.4,1/26/20,Maricopa,AZ,-112.491279,33.348825,,,,,,,,,,,,,,,,,,,,,
5,NO.5,1/26/20,Los Angeles,CA,-118.220938,34.342772,,,,,,,,,,,,,,,,,,,,,
6,NO.6,1/30/20,Cook,IL,-87.816823,41.840149,,,,,,,,,,,,,,,,,,,,,
7,NO.7,1/31/20,Santa Clara,CA,-121.694797,37.23174,,,,,,,,,,,,,,,,,,,,,
8,NO.8,2/1/20,Suffolk,MA,-71.075374,42.331892,,,,,,,,,,,,,,,,,,,,,
9,NO.9,2/2/20,San Benito,CA,-121.074927,36.605599,,,,,,,,,,,,,,,,,,,,,
10,NO.10,2/2/20,San Benito,CA,-121.074927,36.605599,,,,,,,,,,,,,,,,,,,,,
11,NO.11,2/2/20,Santa Clara,CA,-121.694797,37.23174,,,,,,,,,,,,,,,,,,,,,
12,NO.12,2/5/20,Dane,WI,-89.418214,43.067322,,,,,,,,,,,,,,,,,,,,,
13,NO.13,2/10/20,San Diego,CA,-116.75641,33.033899,,,,,,,,,,,,,,,,,,,,,
14,NO.14,2/12/20,San Diego,CA,-116.75641,33.033899,,,,,,,,,,,,,,,,,,,,,
15,NO.15,2/13/20,Bexar,Diamond Princess,-98.452641,29.510897,,,,,,,,,,,,,,,,,,,,,
16,NO.16,2/18/20,Napa,CA,-122.330609,38.506477,,,,,,,,,,,,,,,,,,,,,
17,NO.17,2/20/20,Humboldt,CA,-123.873715,40.698798,,,,,,,,,,,,,,,,,,,,,
18,NO.19-20,2/21/20,Bexar,Diamond Princess,-98.452641,29.510897,,,,,,,,,,,,,,,,,,,,,
19,NO.21-35,2/21/20,Unassigned,Diamond Princess,-88.25825,41.28834,,,,,,,,,,,,,,,,,,,,,
20,NO.36-53,2/24/20,Unassigned,Diamond Princess,-88.25825,41.28834,,,,,,,,,,,,,,,,,,,,,
21,NO.54-57,2/25/20,Unassigned,Diamond Princess,-88.25825,41.28834,,,,,,,,,,,,,,,,,,,,,
22,NO.58-59,2/26/20,Unassigned,Diamond Princess,-88.25825,41.28834,,,,,,,,,,,,,,,,,,,,,
23,NO.60,2/26/20,Solano,CA,-121.927241,38.277934,,,,,,,,,,,,,,,,,,,,,
24,NO.61-62,2/28/20,Unassigned,Diamond Princess,-88.25825,41.28834,,,,,,,,,,,,,,,,,,,,,
25,NO.63,2/28/20,Santa Clara,CA,-121.694797,37.23174,,,,,,,,,,,,,,,,,,,,,
26,NO.64,2/28/20,Washington,OR,-123.098408,45.56006,,,,,,,,,,,,,,,,,,,,,
27,NO.65,2/28/20,Snohomish,WA,-121.6963,48.047349,,,,,,,,,,,,,,,,,,,,,
28,NO.66,2/28/20,King,WA,-121.804332,47.490118,,,,,,,,,,,,,,,,,,,,,
29,NO.67,2/29/20,King,WA,-121.804332,47.490118,,,,,,,,,,,,,,,,,,,,,
30,NO.68,2/29/20,King,WA,-121.804332,47.490118,,,,,,,,,,,,,,,,,,,,,
31,NO.69,2/29/20,King,WA,-121.804332,47.490118,,,,,,,,,,,,,,,,,,,,,
32,NO.70,2/29/20,Cook,IL,-87.816823,41.840149,,,,,,,,,,,,,,,,,,,,,
33,NO.71,2/29/20,Santa Clara,CA,-121.694797,37.23174,,,,,,,,,,,,,,,,,,,,,
34,NO.72,3/1/20,Providence,RI,-71.578698,41.8714,,,,,,,,,,,,,,,,,,,,,
35,NO.73,3/1/20,King,WA,-121.804332,47.490118,,,,,,,,,,,,,,,,,,,,,
36,NO.74,3/1/20,King,WA,-121.804332,47.490118,,,,,,,,,,,,,,,,,,,,,
37,NO.75,3/1/20,Alameda,CA,-121.887644,37.646501,,,,,,,,,,,,,,,,,,,,,
38,NO.76,3/1/20,Solano,CA,-121.927241,38.277934,,,,,,,,,,,,,,,,,,,,,
39,NO.77,3/1/20,Santa Clara,CA,-121.694797,37.23174,,,,,,,,,,,,,,,,,,,,,
40,NO.78,3/1/20,Santa Clara,CA,-121.694797,37.23174,,,,,,,,,,,,,,,,,,,,,
41,NO.79,3/1/20,Santa Clara,CA,-121.694797,37.23174,,,,,,,,,,,,,,,,,,,,,
42,NO.80,3/1/20,New York,NY,-74.00714,40.71455,,,,,,,,,,,,,,,,,,,,,
43,NO.81,3/1/20,King,WA,-121.804332,47.490118,,,,,,,,,,,,,,,,,,,,,
44,NO.82,3/1/20,King,WA,-121.804332,47.490118,,,,,,,,,,,,,,,,,,,,,
45,NO.83,3/1/20,King,WA,-121.804332,47.490118,,,,,,,,,,,,,,,,,,,,,
46,NO.84,3/1/20,King,WA,-121.804332,47.490118,,,,,,,,,,,,,,,,,,,,,
47,NO.85,3/1/20,Snohomish,WA,-121.6963,48.047349,,,,,,,,,,,,,,,,,,,,,
48,NO.86,3/1/20,Manatee,FL,-82.301958,27.471863,,,,,,,,,,,,,,,,,,,,,
49,NO.87,3/1/20,Hillsborough,FL,-82.307855,27.930231,,,,,,,,,,,,,,,,,,,,,
50,NO.88,3/1/20,Providence,RI,-71.578698,41.8714,,,,,,,,,,,,,,,,,,,,,
51,NO.89,3/1/20,Bexar,Diamond Princess,-98.452641,29.510897,,,,,,,,,,,,,,,,,,,,,
52,NO.90,3/1/20,Washington,OR,-123.098408,45.56006,,,,,,,,,,,,,,,,,,,,,
53,NO.91,3/1/20,Unassigned,Diamond Princess,-88.25825,41.28834,,,,,,,,,,,,,,,,,,,,,
54,NO.92,3/2/20,Grafton,NH,-71.820609,43.940728,,,,,,,,,,,,,,,,,,,,,
55,NO.93,3/2/20,Cook,IL,-87.816823,41.840149,,,,,,,,,,,,,,,,,,,,,
56,NO.94,3/2/20,Washington,OR,-123.098408,45.56006,,,,,,,,,,,,,,,,,,,,,
57,NO.95,3/2/20,Santa Clara,CA,-121.694797,37.23174,,,,,,,,,,,,,,,,,,,,,
58,NO.96,3/2/20,Santa Clara,CA,-121.694797,37.23174,,,,,,,,,,,,,,,,,,,,,
59,NO.97,3/2/20,San Mateo,CA,-122.32863,37.422133,,,,,,,,,,,,,,,,,,,,,
60,NO.98,3/2/20,King,WA,-121.804332,47.490118,,,,,,,,,,,,,,,,,,,,,
61,NO.99,3/2/20,Sonoma,CA,-122.887397,38.528618,,,,,,,,,,,,,,,,,,,,,
62,NO.100,3/2/20,Snohomish,WA,-121.6963,48.047349,,,,,,,,,,,,,,,,,,,,,
63,NO.101,3/2/20,Placer,CA,-120.753633,39.059136,,,,,,,,,,,,,,,,,,,,,
64,NO.102,3/2/20,Norfolk,MA,-71.211596,42.160531,,,,,,,,,,,,,,,,,,,,,
65,NO.103,3/2/20,Fulton,GA,-84.46711,33.790241,,,,,,,,,,,,,,,,,,,,,
66,NO.104,3/2/20,Fulton,GA,-84.46711,33.790241,,,,,,,,,,,,,,,,,,,,,
67,NO.105,3/2/20,King,WA,-121.804332,47.490118,,,,,,,,,,,,,,,,,,,,,
68,NO.106,3/2/20,King,WA,-121.804332,47.490118,,,,,,,,,,,,,,,,,,,,,
69,NO.107,3/2/20,King,WA,-121.804332,47.490118,,,,,,,,,,,,,,,,,,,,,
70,NO.108-109,3/2/20,Sacramento,CA,-121.343895,38.449858,,,,,,,,,,,,,,,,,,,,,
71,NO.110,3/3/20,New York,NY,-74.00714,40.71455,,,,,,,,,,,,,,,,,,,,,
72,NO.111,3/3/20,Maricopa,AZ,-112.491279,33.348825,,,,,,,,,,,,,,,,,,,,,
73,NO.112,3/3/20,Hillsborough,FL,-82.307855,27.930231,,,,,,,,,,,,,,,,,,,,,
74,NO.113,3/3/20,King,WA,-121.804332,47.490118,,,,,,,,,,,,,,,,,,,,,
75,NO.114,3/3/20,Snohomish,WA,-121.6963,48.047349,,,,,,,,,,,,,,,,,,,,,
76,NO.115,3/3/20,Snohomish,WA,-121.6963,48.047349,,,,,,,,,,,,,,,,,,,,,
77,NO.116,3/3/20,King,WA,-121.804332,47.490118,,,,,,,,,,,,,,,,,,,,,
78,NO.117,3/3/20,King,WA,-121.804332,47.490118,,,,,,,,,,,,,,,,,,,,,
79,NO.118,3/3/20,King,WA,-121.804332,47.490118,,,,,,,,,,,,,,,,,,,,,
80,NO.119,3/3/20,King,WA,-121.804332,47.490118,,,,,,,,,,,,,,,,,,,,,
81,NO.120,3/3/20,King,WA,-121.804332,47.490118,,,,,,,,,,,,,,,,,,,,,
82,NO.121,3/3/20,King,WA,-121.804332,47.490118,,,,,,,,,,,,,,,,,,,,,
83,NO.122,3/3/20,Wake,NC,-78.650398,35.790108,,,,,,,,,,,,,,,,,,,,,
84,NO.123,3/3/20,Santa Clara,CA,-121.694797,37.23174,,,,,,,,,,,,,,,,,,,,,
85,NO.124,3/3/20,Santa Clara,CA,-121.694797,37.23174,,,,,,,,,,,,,,,,,,,,,
86,NO.125,3/3/20,Grafton,NH,-71.820609,43.940728,,,,,,,,,,,,,,,,,,,,,
87,NO.126,3/3/20,Alameda,CA,-121.887644,37.646501,,,,,,,,,,,,,,,,,,,,,
88,NO.127,3/3/20,Orange,CA,-117.760595,33.703222,,,,,,,,,,,,,,,,,,,,,
89,NO.128,3/3/20,Orange,CA,-117.760595,33.703222,,,,,,,,,,,,,,,,,,,,,
90,NO.129,3/3/20,Contra Costa,CA,-121.925935,37.917937,,,,,,,,,,,,,,,,,,,,,
91,NO.130,3/3/20,Los Angeles,CA,-118.220938,34.342772,,,,,,,,,,,,,,,,,,,,,
92,NO.131,3/3/20,Placer,CA,-120.753633,39.059136,,,,,,,,,,,,,,,,,,,,,
93,NO.132,3/3/20,King,WA,-121.804332,47.490118,,,,,,,,,,,,,,,,,,,,,
94,NO.133,3/4/20,Westchester,NY,-73.756063,41.163198,,,,,,,,,,,,,,,,,,,,,
95,NO.134,3/4/20,Westchester,NY,-73.756063,41.163198,,,,,,,,,,,,,,,,,,,,,
96,NO.135,3/4/20,Westchester,NY,-73.756063,41.163198,,,,,,,,,,,,,,,,,,,,,
97,NO.136,3/4/20,Westchester,NY,-73.756063,41.163198,,,,,,,,,,,,,,,,,,,,,
98,NO.137,3/4/20,Los Angeles,CA,-118.220938,34.342772,,,,,,,,,,,,,,,,,,,,,
99,NO.138,3/4/20,Los Angeles,CA,-118.220938,34.342772,,,,,,,,,,,,,,,,,,,,,
100,NO.139,3/4/20,Los Angeles,CA,-118.220938,34.342772,,,,,,,,,,,,,,,,,,,,,
101,NO.140,3/4/20,Los Angeles,CA,-118.220938,34.342772,,,,,,,,,,,,,,,,,,,,,
102,NO.141,3/4/20,Los Angeles,CA,-118.220938,34.342772,,,,,,,,,,,,,,,,,,,,,
103,NO.142,3/4/20,King,WA,-121.804332,47.490118,,,,,,,,,,,,,,,,,,,,,
104,NO.143,3/4/20,King,WA,-121.804332,47.490118,,,,,,,,,,,,,,,,,,,,,
105,NO.144,3/4/20,King,WA,-121.804332,47.490118,,,,,,,,,,,,,,,,,,,,,
106,NO.145,3/4/20,King,WA,-121.804332,47.490118,,,,,,,,,,,,,,,,,,,,,
107,NO.146,3/4/20,King,WA,-121.804332,47.490118,,,,,,,,,,,,,,,,,,,,,
108,NO.147,3/4/20,King,WA,-121.804332,47.490118,,,,,,,,,,,,,,,,,,,,,
109,NO.148,3/4/20,King,WA,-121.804332,47.490118,,,,,,,,,,,,,,,,,,,,,
110,NO.149,3/4/20,King,WA,-121.804332,47.490118,,,,,,,,,,,,,,,,,,,,,
111,NO.150,3/4/20,King,WA,-121.804332,47.490118,,,,,,,,,,,,,,,,,,,,,
112,NO.151,3/4/20,Snohomish,WA,-121.6963,48.047349,,,,,,,,,,,,,,,,,,,,,
113,NO.152,3/4/20,Snohomish,WA,-121.6963,48.047349,,,,,,,,,,,,,,,,,,,,,
114,NO.153,3/4/20,Westchester,NY,-73.756063,41.163198,,,,,,,,,,,,,,,,,,,,,
115,NO.154,3/4/20,Westchester,NY,-73.756063,41.163198,,,,,,,,,,,,,,,,,,,,,
116,NO.155,3/4/20,Westchester,NY,-73.756063,41.163198,,,,,,,,,,,,,,,,,,,,,
117,NO.156,3/4/20,Westchester,NY,-73.756063,41.163198,,,,,,,,,,,,,,,,,,,,,
118,NO.157,3/4/20,Westchester,NY,-73.756063,41.163198,,,,,,,,,,,,,,,,,,,,,
119,NO.158,3/4/20,Santa Clara,CA,-121.694797,37.23174,,,,,,,,,,,,,,,,,,,,,
120,NO.159,3/4/20,Santa Clara,CA,-121.694797,37.23174,,,,,,,,,,,,,,,,,,,,,
121,NO.160,3/4/20,Santa Clara,CA,-121.694797,37.23174,,,,,,,,,,,,,,,,,,,,,
122,NO.161,3/4/20,Fort Bend,TX,-95.770651,29.527453,,,,,,,,,,,,,,,,,,,,,
123,NO.162,3/4/20,Bergen,NJ,-74.074442,40.959491,,,,,,,,,,,,,,,,,,,,,
124,NO.163,3/4/20,King,WA,-121.804332,47.490118,,,,,,,,,,,,,,,,,,,,,
125,NO.164,3/4/20,Grant,WA,-119.452599,47.198858,,,,,,,,,,,,,,,,,,,,,
126,NO.165,3/5/20,New York,NY,-74.00714,40.71455,,,,,,,,,,,,,,,,,,,,,
127,NO.166,3/5/20,New York,NY,-74.00714,40.71455,,,,,,,,,,,,,,,,,,,,,
128,NO.167,3/5/20,Clark,NV,-115.024691,36.2171,,,,,,,,,,,,,,,,,,,,,
129,NO.168,3/5/20,Williamson,TN,-86.89864,35.893827,,,,,,,,,,,,,,,,,,,,,
130,NO.169,3/5/20,Santa Rosa,FL,-87.017614,30.731476,,,,,,,,,,,,,,,,,,,,,
131,NO.170-177,3/5/20,Westchester,NY,-73.756063,41.163198,,,,,,,,,,,,,,,,,,,,,
132,NO.178,3/5/20,Cook,IL,-87.816823,41.840149,,,,,,,,,,,,,,,,,,,,,
133,NO.179-197,3/5/20,King,WA,-121.804332,47.490118,,,,,,,,,,,,,,,,,,,,,
134,NO.198-207,3/5/20,Snohomish,WA,-121.6963,48.047349,,,,,,,,,,,,,,,,,,,,,
135,NO.208,3/5/20,San Francisco,CA,-122.41844,37.7794,,,,,,,,,,,,,,,,,,,,,
136,NO.209,3/5/20,San Francisco,CA,-122.41844,37.7794,,,,,,,,,,,,,,,,,,,,,
137,NO.210,3/5/20,San Diego,CA,-116.75641,33.033899,,,,,,,,,,,,,,,,,,,,,
138,NO.211,3/5/20,Bergen,NJ,-74.074442,40.959491,,,,,,,,,,,,,,,,,,,,,
139,NO.212,3/5/20,Nassau,NY,-73.588996,40.741652,,,,,,,,,,,,,,,,,,,,,
140,NO.213-216,3/5/20,Los Angeles,CA,-118.220938,34.342772,,,,,,,,,,,,,,,,,,,,,
141,NO.217-218,3/5/20,Harris,TX,-95.393111,29.857628,,,,,,,,,,,,,,,,,,,,,
142,NO.219-223,3/5/20,Unassigned,WA,-120.556263,47.411252,,,,,,,,,,,,,,,,,,,,,
143,NO.224-229,3/5/20,Santa Clara,CA,-121.694797,37.23174,,,,,,,,,,,,,,,,,,,,,
144,NO.230,3/5/20,Summit,CO,-106.116361,39.634169,,,,,,,,,,,,,,,,,,,,,
145,NO.231,3/5/20,Middlesex,MA,-71.391791,42.485594,,,,,,,,,,,,,,,,,,,,,
146,NO.232-234,3/5/20,Montgomery,MD,-77.204032,39.136368,,,,,,,,,,,,,,,,,,,,,
147,NO.235,3/5/20,Douglas,CO,-104.929571,39.329666,,,,,,,,,,,,,,,,,,,,,
148,NO.236,3/5/20,Suffolk,MA,-71.075374,42.331892,,,,,,,,,,,,,,,,,,,,,
149,NO.237,3/5/20,King,WA,-121.804332,47.490118,,,,,,,,,,,,,,,,,,,,,
150,NO.238,3/5/20,Harris,TX,-95.393111,29.857628,,,,,,,,,,,,,,,,,,,,,
151,NO.239,3/6/20,Delaware,PA,-75.398986,39.916725,,,,,,,,,,,,,,,,,,,,,
152,NO.240,3/6/20,Wayne,PA,-75.303249,41.648788,,,,,,,,,,,,,,,,,,,,,
153,NO.241,3/6/20,Harris,TX,-95.393111,29.857628,,,,,,,,,,,,,,,,,,,,,
154,NO.242,3/6/20,Harris,TX,-95.393111,29.857628,,,,,,,,,,,,,,,,,,,,,
155,NO.243,3/6/20,Chatham,NC,-79.255416,35.70263,,,,,,,,,,,,,,,,,,,,,
156,NO.244,3/6/20,Marion,IN,-86.138415,39.781744,,,,,,,,,,,,,,,,,,,,,
157,NO.245,3/6/20,Floyd,GA,-85.214528,34.263242,,,,,,,,,,,,,,,,,,,,,
158,NO.246,3/6/20,Pinal,AZ,-111.344765,32.90432,,,,,,,,,,,,,,,,,,,,,
159,NO.247,3/6/20,Norfolk,MA,-71.211596,42.160531,,,,,,,,,,,,,,,,,,,,,
160,NO.248-250,3/6/20,Suffolk,MA,-71.075374,42.331892,,,,,,,,,,,,,,,,,,,,,
161,NO.251-258,3/6/20,Westchester,NY,-73.756063,41.163198,,,,,,,,,,,,,,,,,,,,,
162,NO.259-260,3/6/20,Contra Costa,CA,-121.925935,37.917937,,,,,,,,,,,,,,,,,,,,,
163,NO.261,3/6/20,Contra Costa,CA,-121.925935,37.917937,,,,,,,,,,,,,,,,,,,,,
164,NO.262,3/6/20,Washoe,NV,-119.665991,40.68696,,,,,,,,,,,,,,,,,,,,,
165,NO.263,3/6/20,Yolo,CA,-121.90171,38.686848,,,,,,,,,,,,,,,,,,,,,
166,NO.264-265,3/6/20,Los Angeles,CA,-118.220938,34.342772,,,,,,,,,,,,,,,,,,,,,
167,NO.266,3/6/20,Camden,NJ,-74.959998,39.803719,,,,,,,,,,,,,,,,,,,,,
168,NO.267,3/6/20,Jefferson,WA,-123.60001,47.748106,,,,,,,,,,,,,,,,,,,,,
169,NO.268-270,3/6/20,Placer,CA,-120.753633,39.059136,,,,,,,,,,,,,,,,,,,,,
170,NO.271-277,3/6/20,King,WA,-121.804332,47.490118,,,,,,,,,,,,,,,,,,,,,
171,NO.278,3/6/20,Snohomish,WA,-121.6963,48.047349,,,,,,,,,,,,,,,,,,,,,
172,NO.279,3/6/20,Ramsey,MN,-93.099617,45.018122,,,,,,,,,,,,,,,,,,,,,
173,NO.280,3/6/20,Fayette,KY,-84.458687,38.042272,,,,,,,,,,,,,,,,,,,,,
174,NO.281-282,3/6/20,Denver,CO,-104.9847,39.73915,,,,,,,,,,,,,,,,,,,,,
175,NO.283,3/6/20,Douglas,NE,-96.155334,41.295352,,,,,,,,,,,,,,,,,,,,,
176,NO.284-304,3/6/20,Unassigned,Grand Princess,-64.72733,17.7533,,,,,,,,,,,,,,,,,,,,,
177,NO.305-312,3/6/20,Westchester,NY,-73.756063,41.163198,,,,,,,,,,,,,,,,,,,,,
178,NO.313,3/6/20,Tulsa,OK,-95.941464,36.121067,,,,,,,,,,,,,,,,,,,,,
179,NO.314-316,3/6/20,Nassau,NY,-73.588996,40.741652,,,,,,,,,,,,,,,,,,,,,
180,NO.317,3/6/20,El Paso,CO,-104.525514,38.832127,,,,,,,,,,,,,,,,,,,,,
181,NO.318,3/6/20,Bergen,NJ,-74.074442,40.959491,,,,,,,,,,,,,,,,,,,,,
182,NO.319,3/6/20,Santa Clara,CA,-121.694797,37.23174,,,,,,,,,,,,,,,,,,,,,
183,NO.320,3/6/20,Santa Clara,CA,-121.694797,37.23174,,,,,,,,,,,,,,,,,,,,,
184,NO.321,3/6/20,Santa Clara,CA,-121.694797,37.23174,,,,,,,,,,,,,,,,,,,,,
185,NO.322,3/6/20,Santa Clara,CA,-121.694797,37.23174,,,,,,,,,,,,,,,,,,,,,
186,NO.323,3/6/20,Kershaw,SC,-80.590296,34.338922,,,,,,,,,,,,,,,,,,,,,
187,NO.324,3/6/20,Charleston,SC,-79.958633,32.832761,,,,,,,,,,,,,,,,,,,,,
188,NO.325,3/6/20,Cook,IL,-87.816823,41.840149,,,,,,,,,,,,,,,,,,,,,
189,NO.326-327,3/6/20,Fort Bend,TX,-95.770651,29.527453,,,,,,,,,,,,,,,,,,,,,
190,NO.328,3/6/20,Hawaii,HI,-155.518361,19.598117,,,,,,,,,,,,,,,,,,,,,
191,NO.329,3/6/20,Providence,RI,-71.578698,41.8714,,,,,,,,,,,,,,,,,,,,,
192,NO.330-331,3/6/20,Douglas,CO,-104.929571,39.329666,,,,,,,,,,,,,,,,,,,,,
193,NO.332,3/6/20,Eagle,CO,-106.695148,39.62785,,,,,,,,,,,,,,,,,,,,,
194,NO.333,3/6/20,Pierce,WA,-122.101441,47.022708,,,,,,,,,,,,,,,,,,,,,
195,NO.334-335,3/6/20,Broward,FL,-80.14357,26.12388,,,,,,,,,,,,,,,,,,,,,
196,NO.336,3/6/20,Lee,FL,-81.824685,26.579652,,,,,,,,,,,,,,,,,,,,,
197,NO.337,3/6/20,Davis,UT,-111.980005,40.999736,,,,,,,,,,,,,,,,,,,,,
198,NO.338,3/6/20,Montgomery,TX,-95.503049,30.300205,,,,,,,,,,,,,,,,,,,,,
199,NO.339,3/6/20,Alameda,CA,-121.887644,37.646501,,,,,,,,,,,,,,,,,,,,,
200,NO.340,3/6/20,San Francisco,CA,-122.41844,37.7794,,,,,,,,,,,,,,,,,,,,,
201,NO.341-342,3/6/20,Rockland,NY,-74.02401,41.152374,,,,,,,,,,,,,,,,,,,,,
202,NO.343,3/6/20,New York,NY,-74.00714,40.71455,,,,,,,,,,,,,,,,,,,,,
203,NO.344,3/6/20,Ventura,CA,-119.083619,34.45675,,,,,,,,,,,,,,,,,,,,,
204,NO.345,3/6/20,Solano,CA,-121.927241,38.277934,,,,,,,,,,,,,,,,,,,,,
205,NO.346-347,3/6/20,Sonoma,CA,-122.887397,38.528618,,,,,,,,,,,,,,,,,,,,,
206,Die,3/7/20,King,WA,-121.804332,47.490118,,,,,,,,,,,,,,,,,,,,,
207,NO.348,3/7/20,Cobb,GA,-84.576637,33.94148,,,,,,,,,,,,,,,,,,,,,
208,NO.349,3/7/20,Fulton,GA,-84.46711,33.790241,,,,,,,,,,,,,,,,,,,,,
209,NO.350,3/7/20,Lee,FL,-81.824685,26.579652,,,,,,,,,,,,,,,,,,,,,
210,NO.351-352,3/7/20,Pinal,AZ,-111.344765,32.90432,,,,,,,,,,,,,,,,,,,,,
211,NO.353,3/7/20,New York,NY,-74.00714,40.71455,,,,,,,,,,,,,,,,,,,,,
212,NO.354-356,3/7/20,New York,NY,-74.00714,40.71455,,,,,,,,,,,,,,,,,,,,,
213,NO.357-358,3/7/20,Saratoga,NY,-73.861385,43.105506,,,,,,,,,,,,,,,,,,,,,
214,NO.359,3/7/20,Clark,WA,-122.481279,45.781873,,,,,,,,,,,,,,,,,,,,,
215,NO.360-382,3/7/20,Westchester,NY,-73.756063,41.163198,,,,,,,,,,,,,,,,,,,,,
216,NO.383-384,3/7/20,Jackson,OR,-122.728486,42.432119,,,,,,,,,,,,,,,,,,,,,
217,NO.385,3/7/20,Klamath,OR,-121.643352,42.692191,,,,,,,,,,,,,,,,,,,,,
218,NO.386-389,3/7/20,Middlesex,MA,-71.391791,42.485594,,,,,,,,,,,,,,,,,,,,,
219,NO.390,3/7/20,Washington,OR,-123.098408,45.56006,,,,,,,,,,,,,,,,,,,,,
220,NO.391,3/7/20,Madera,CA,-119.762725,37.218011,,,,,,,,,,,,,,,,,,,,,
221,NO.392-403,3/7/20,King,WA,-121.804332,47.490118,,,,,,,,,,,,,,,,,,,,,
222,NO.404-411,3/7/20,Snohomish,WA,-121.6963,48.047349,,,,,,,,,,,,,,,,,,,,,
223,NO.412,3/7/20,Charlotte,FL,-81.903439,26.908483,,,,,,,,,,,,,,,,,,,,,
224,NO.413,3/7/20,Santa Clara,CA,-121.694797,37.23174,,,,,,,,,,,,,,,,,,,,,
225,NO.414,3/7/20,Santa Cruz,CA,-122.001609,37.056236,,,,,,,,,,,,,,,,,,,,,
226,NO.415,3/7/20,Santa Clara,CA,-121.694797,37.23174,,,,,,,,,,,,,,,,,,,,,
227,NO.416-421,3/7/20,San Francisco,CA,-122.41844,37.7794,,,,,,,,,,,,,,,,,,,,,
228,NO.422,3/7/20,Los Angeles,CA,-118.220938,34.342772,,,,,,,,,,,,,,,,,,,,,
229,NO.423,3/7/20,Kittitas,WA,-120.683616,47.125059,,,,,,,,,,,,,,,,,,,,,
230,NO.424,3/7/20,Berkshire,MA,-73.20638,42.370629,,,,,,,,,,,,,,,,,,,,,
231,NO.425,3/7/20,Washington. D.C.,DC,-77.016257,38.904829,,,,,,,,,,,,,,,,,,,,,
232,NO.426-431,3/7/20,Santa Clara,CA,-121.694797,37.23174,,,,,,,,,,,,,,,,,,,,,
233,NO.432-433,3/7/20,Montgomery,PA,-75.367364,40.210894,,,,,,,,,,,,,,,,,,,,,
234,NO.434-446,3/7/20,Westchester,NY,-73.756063,41.163198,,,,,,,,,,,,,,,,,,,,,
235,NO.447,3/7/20,Johnson,KS,-94.822225,38.883773,,,,,,,,,,,,,,,,,,,,,
236,NO.448,3/7/20,Okaloosa,FL,-86.596508,30.707024,,,,,,,,,,,,,,,,,,,,,
237,NO.449,3/7/20,Fairfax,VA,-77.277841,38.837998,,,,,,,,,,,,,,,,,,,,,
238,NO.450,3/7/20,Volusia,FL,-81.162041,29.047508,,,,,,,,,,,,,,,,,,,,,
239,NO.451,3/7/20,St. Louis,MO,-90.445096,38.639622,,,,,,,,,,,,,,,,,,,,,
240,NO.452-453,3/7/20,New York,NY,-74.00714,40.71455,,,,,,,,,,,,,,,,,,,,,
241,NO.454,3/7/20,Gwinnett,GA,-84.023587,33.961189,,,,,,,,,,,,,,,,,,,,,
242,NO.455,3/7/20,New York,NY,-74.00714,40.71455,,,,,,,,,,,,,,,,,,,,,
243,NO.456,3/7/20,Fulton,GA,-84.46711,33.790241,,,,,,,,,,,,,,,,,,,,,
244,NO.457,3/7/20,Manatee,FL,-82.301958,27.471863,,,,,,,,,,,,,,,,,,,,,
245,NO.458,3/7/20,Fresno,CA,-119.649194,36.758275,,,,,,,,,,,,,,,,,,,,,
246,NO.459,3/7/20,Bennington,VT,-73.093067,43.035346,,,,,,,,,,,,,,,,,,,,,
247,NO.460-461,3/7/20,Pierce,WA,-122.101441,47.022708,,,,,,,,,,,,,,,,,,,,,
248,NO.462,3/7/20,Grafton,NH,-71.820609,43.940728,,,,,,,,,,,,,,,,,,,,,
249,NO.463,3/7/20,Rockingham,NH,-71.128225,42.986738,,,,,,,,,,,,,,,,,,,,,
250,NO.464,3/7/20,Polk,GA,-85.18811,34.001688,,,,,,,,,,,,,,,,,,,,,
251,NO.465,3/8/20,Riverside,CA,-115.993923,33.746112,,,,,,,,,,,,,,,,,,,,,
252,NO.466,3/8/20,,DC,-77.016257,38.904829,,,,,,,,,,,,,,,,,,,,,
253,NO.467,3/8/20,Fairfax,VA,-77.277841,38.837998,,,,,,,,,,,,,,,,,,,,,
254,NO.468-480,3/8/20,Westchester,NY,-73.756063,41.163198,,,,,,,,,,,,,,,,,,,,,
255,NO.481,3/8/20,Ulster,NY,-74.258374,41.888112,,,,,,,,,,,,,,,,,,,,,
256,NO.482,3/8/20,Nassau,NY,-73.588996,40.741652,,,,,,,,,,,,,,,,,,,,,
257,NO.483-485,3/8/20,Fort Bend,TX,-95.770651,29.527453,,,,,,,,,,,,,,,,,,,,,
258,NO.486,3/8/20,Shelby,TN,-89.887436,35.185009,,,,,,,,,,,,,,,,,,,,,
259,NO.487,3/8/20,Wilton,CT,-83.712302,33.794376,,,,,,,,,,,,,,,,,,,,,
260,NO.488,3/8/20,Davidson,TN,-86.784757,36.169561,,,,,,,,,,,,,,,,,,,,,
261,NO.489,3/8/20,Hendricks,IN,-86.50995,39.769454,,,,,,,,,,,,,,,,,,,,,
262,NO.490,3/8/20,Bergen,NJ,-74.074442,40.959491,,,,,,,,,,,,,,,,,,,,,
263,NO.491,3/8/20,Hudson,NJ,-74.07411,40.740342,,,,,,,,,,,,,,,,,,,,,
264,NO.492-495,3/8/20,Washington,OR,-123.098408,45.56006,,,,,,,,,,,,,,,,,,,,,
265,NO.496,3/8/20,Umatilla,OR,-118.735272,45.590696,,,,,,,,,,,,,,,,,,,,,
266,NO.497,3/8/20,Douglas,OR,-123.166487,43.279771,,,,,,,,,,,,,,,,,,,,,
267,NO.498,3/8/20,Marion,OR,-122.584168,44.90316,,,,,,,,,,,,,,,,,,,,,
268,NO.499,3/8/20,Cook,IL,-87.816823,41.840149,,,,,,,,,,,,,,,,,,,,,
269,NO.500-511,3/8/20,King,WA,-121.804332,47.490118,,,,,,,,,,,,,,,,,,,,,
270,NO.512-516,3/8/20,Suffolk,MA,-71.075374,42.331892,,,,,,,,,,,,,,,,,,,,,
271,NO.517-521,3/8/20,Middlesex,MA,-71.391791,42.485594,,,,,,,,,,,,,,,,,,,,,
272,NO.522-525,3/8/20,Norfolk,MA,-71.211596,42.160531,,,,,,,,,,,,,,,,,,,,,
273,NO.526,3/8/20,Worcester,MA,-71.904198,42.350917,,,,,,,,,,,,,,,,,,,,,
274,NO.527-531,3/8/20,Santa Clara,CA,-121.694797,37.23174,,,,,,,,,,,,,,,,,,,,,
275,NO.532,3/8/20,Clark,NV,-115.024691,36.2171,,,,,,,,,,,,,,,,,,,,,
276,NO.533,3/8/20,Contra Costa,CA,-121.925935,37.917937,,,,,,,,,,,,,,,,,,,,,
277,NO.534,3/8/20,Contra Costa,CA,-121.925935,37.917937,,,,,,,,,,,,,,,,,,,,,
278,NO.535-536,3/8/20,Montgomery,PA,-75.367364,40.210894,,,,,,,,,,,,,,,,,,,,,
279,NO.537,3/8/20,Contra Costa,CA,-121.925935,37.917937,,,,,,,,,,,,,,,,,,,,,
280,NO.538,3/8/20,Contra Costa,CA,-121.925935,37.917937,,,,,,,,,,,,,,,,,,,,,
281,NO.539,3/8/20,Contra Costa,CA,-121.925935,37.917937,,,,,,,,,,,,,,,,,,,,,
282,NO.540-543,3/8/20,Snohomish,WA,-121.6963,48.047349,,,,,,,,,,,,,,,,,,,,,
283,NO.544,3/8/20,Harford,MD,-76.31584,39.55444,,,,,,,,,,,,,,,,,,,,,
284,NO.545,3/8/20,Camden,SC,-81.671128,30.932503,,,,,,,,,,,,,,,,,,,,,
285,NO.546,3/8/20,Camden,SC,-81.671128,30.932503,,,,,,,,,,,,,,,,,,,,,
286,NO.547,3/8/20,Montgomery,MD,-77.204032,39.136368,,,,,,,,,,,,,,,,,,,,,
287,NO.548,3/8/20,Pierce,WA,-122.101441,47.022708,,,,,,,,,,,,,,,,,,,,,
288,NO.549,3/8/20,Camden,SC,-81.671128,30.932503,,,,,,,,,,,,,,,,,,,,,
289,NO.550,3/8/20,Spartanburg,SC,-81.990682,34.931192,,,,,,,,,,,,,,,,,,,,,
290,NO.551,3/8/20,Harrison,KY,-84.331404,38.44174,,,,,,,,,,,,,,,,,,,,,
291,NO.552,3/8/20,Fayette,KY,-84.458687,38.042272,,,,,,,,,,,,,,,,,,,,,
292,NO.553,3/8/20,Jefferson,KY,-85.654995,38.18589,,,,,,,,,,,,,,,,,,,,,
293,NO.554,3/8/20,Orange,CA,-117.760595,33.703222,,,,,,,,,,,,,,,,,,,,,
294,NO.555,3/8/20,Broward,FL,-80.14357,26.12388,,,,,,,,,,,,,,,,,,,,,
295,NO.556,3/8/20,Washoe,NV,-119.665991,40.68696,,,,,,,,,,,,,,,,,,,,,
296,NO.557-559,3/8/20,Johnson,IA,-91.588054,41.671496,,,,,,,,,,,,,,,,,,,,,
297,NO.560,3/8/20,Suffolk,NY,-72.85898,40.877328,,,,,,,,,,,,,,,,,,,,,
298,NO.561,3/8/20,Carver,MN,-93.802611,44.820695,,,,,,,,,,,,,,,,,,,,,
299,NO.562-563,3/8/20,Douglas,NE,-96.155334,41.295352,,,,,,,,,,,,,,,,,,,,,
300,NO.564,3/8/20,Harris,TX,-95.393111,29.857628,,,,,,,,,,,,,,,,,,,,,
301,NO.565,3/8/20,Shasta,CA,-122.037451,40.763422,,,,,,,,,,,,,,,,,,,,,
302,NO.566,3/8/20,Honolulu,HI,-157.90526,21.35492,,,,,,,,,,,,,,,,,,,,,
303,NO.567,3/8/20,Fulton,GA,-84.46711,33.790241,,,,,,,,,,,,,,,,,,,,,
304,NO.568,3/8/20,Cherokee,GA,-84.476244,34.24399,,,,,,,,,,,,,,,,,,,,,
305,NO.569-570,3/8/20,Cobb,GA,-84.576637,33.94148,,,,,,,,,,,,,,,,,,,,,
306,NO.571,3/8/20,Hendricks,IN,-86.50995,39.769454,,,,,,,,,,,,,,,,,,,,,
307,NO.572-573,3/8/20,Placer,CA,-120.753633,39.059136,,,,,,,,,,,,,,,,,,,,,
308,NO.574,3/8/20,New York,NY,-74.00714,40.71455,,,,,,,,,,,,,,,,,,,,,
309,NO.575-576,3/8/20,Nassau,NY,-73.588996,40.741652,,,,,,,,,,,,,,,,,,,,,
310,NO.577,3/8/20,Noble,IN,-85.417439,41.398582,,,,,,,,,,,,,,,,,,,,,
311,NO.578,3/8/20,Arlington,VA,-77.100957,38.878532,,,,,,,,,,,,,,,,,,,,,
312,NO.579-582,3/8/20,Norfolk,MA,-71.211596,42.160531,,,,,,,,,,,,,,,,,,,,,
313,NO.583,3/8/20,Camden,SC,-81.671128,30.932503,,,,,,,,,,,,,,,,,,,,,
314,NO.584,3/8/20,Kitsap,WA,-122.608532,47.474962,,,,,,,,,,,,,,,,,,,,,
315,NO.585-587,3/9/20,New York,NY,-74.00714,40.71455,,,,,,,,,,,,,,,,,,,,,
316,NO.588-593,3/9/20,Nassau,NY,-73.588996,40.741652,,,,,,,,,,,,,,,,,,,,,
317,NO.594-609,3/9/20,Westchester,NY,-73.756063,41.163198,,,,,,,,,,,,,,,,,,,,,
318,NO.610-612,3/9/20,New York,NY,-74.00714,40.71455,,,,,,,,,,,,,,,,,,,,,
319,NO.613-616,3/9/20,Nassau,NY,-73.588996,40.741652,,,,,,,,,,,,,,,,,,,,,
320,NO.617-618,3/9/20,Rockland,NY,-74.02401,41.152374,,,,,,,,,,,,,,,,,,,,,
321,NO.619,3/9/20,Montgomery,PA,-75.367364,40.210894,,,,,,,,,,,,,,,,,,,,,
322,NO.620,3/9/20,Unknown,TN,-86.144239,35.494728,,,,,,,,,,,,,,,,,,,,,
323,NO.621,3/9/20,Collin,TX,-96.572725,33.18804,,,,,,,,,,,,,,,,,,,,,
324,NO.622,3/9/20,Larimer,CO,-105.460936,40.666452,,,,,,,,,,,,,,,,,,,,,
325,NO.623-627,3/9/20,San Francisco,CA,-122.41844,37.7794,,,,,,,,,,,,,,,,,,,,,
326,NO.628,3/9/20,Jefferson Parish,LA,-90.1488652,29.8442458,,,,,,,,,,,,,,,,,,,,,
327,NO.629,3/9/20,Passaic,NJ,-74.301057,41.034347,,,,,,,,,,,,,,,,,,,,,
328,NO.630-632,3/9/20,Cuyahoga,OH,-81.658582,41.424415,,,,,,,,,,,,,,,,,,,,,
329,NO.633-639,3/9/20,San Mateo,CA,-122.32863,37.422133,,,,,,,,,,,,,,,,,,,,,
330,NO.640,3/9/20,Los Angeles,CA,-118.220938,34.342772,,,,,,,,,,,,,,,,,,,,,
331,NO.641,3/9/20,Los Angeles,CA,-118.220938,34.342772,,,,,,,,,,,,,,,,,,,,,
332,NO.642,3/9/20,Marin,CA,-122.719535,38.071887,,,,,,,,,,,,,,,,,,,,,
333,NO.643-675,3/9/20,King,WA,-121.804332,47.490118,,,,,,,,,,,,,,,,,,,,,
334,NO.676,3/9/20,Monroe,PA,-75.339398,41.058116,,,,,,,,,,,,,,,,,,,,,
335,NO.677-678,3/9/20,Montgomery,PA,-75.367364,40.210894,,,,,,,,,,,,,,,,,,,,,
336,NO.679,3/9/20,Bergen,NJ,-74.074442,40.959491,,,,,,,,,,,,,,,,,,,,,
337,NO.680,3/9/20,Union,NJ,-74.309527,40.659967,,,,,,,,,,,,,,,,,,,,,
338,NO.681,3/9/20,Monmouth,NJ,-74.221946,40.260041,,,,,,,,,,,,,,,,,,,,,
339,NO.682,3/9/20,Monmouth,NJ,-74.221946,40.260041,,,,,,,,,,,,,,,,,,,,,
340,NO.683-686,3/9/20,Cook,IL,-87.816823,41.840149,,,,,,,,,,,,,,,,,,,,,
341,NO.687,3/9/20,Santa Cruz,CA,-122.001609,37.056236,,,,,,,,,,,,,,,,,,,,,
342,NO.688-691,3/9/20,Berkshire,MA,-73.20638,42.370629,,,,,,,,,,,,,,,,,,,,,
343,NO.692-696,3/9/20,Middlesex,MA,-71.391791,42.485594,,,,,,,,,,,,,,,,,,,,,
344,NO.697-700,3/9/20,Johnson,IA,-91.588054,41.671496,,,,,,,,,,,,,,,,,,,,,
345,NO.701-702,3/9/20,Denver,CO,-104.9847,39.73915,,,,,,,,,,,,,,,,,,,,,
346,NO.703-708,3/9/20,Snohomish,WA,-121.6963,48.047349,,,,,,,,,,,,,,,,,,,,,
347,NO.709-711,3/9/20,Riverside,CA,-115.993923,33.746112,,,,,,,,,,,,,,,,,,,,,
348,NO.712,3/9/20,New York,NY,-74.00714,40.71455,,,,,,,,,,,,,,,,,,,,,
349,NO.713,3/9/20,Pima,AZ,-111.789767,32.097271,,,,,,,,,,,,,,,,,,,,,
350,NO.714,3/9/20,Fayette,KY,-84.458687,38.042272,,,,,,,,,,,,,,,,,,,,,
351,NO.715,3/9/20,Harrison,KY,-84.331404,38.44174,,,,,,,,,,,,,,,,,,,,,
352,NO.716,3/9/20,Pierce,WI,-92.421923,44.722733,,,,,,,,,,,,,,,,,,,,,
353,NO.717-721,3/9/20,Wake,NC,-78.650398,35.790108,,,,,,,,,,,,,,,,,,,,,
354,NO.722,3/9/20,Prince George,MD,-76.845871,38.828386,,,,,,,,,,,,,,,,,,,,,
355,NO.723,3/9/20,,CT,-89.29132,31.32606,,,,,,,,,,,,,,,,,,,,,
356,NO.724,3/9/20,Pottawattamie,IA,-95.54142,41.336658,,,,,,,,,,,,,,,,,,,,,
357,NO.725,3/9/20,,FL,-87.213333,30.496582,,,,,,,,,,,,,,,,,,,,,
358,NO.726-727,3/9/20,Norfolk,VA,-76.260984,36.8928,,,,,,,,,,,,,,,,,,,,,
359,NO.728-730,3/9/20,Los Angeles,CA,-118.220938,34.342772,,,,,,,,,,,,,,,,,,,,,
360,NO.731-737,3/9/20,Sacramento,CA,-121.343895,38.449858,,,,,,,,,,,,,,,,,,,,,
361,NO.738-743,3/9/20,Santa Clara,CA,-121.694797,37.23174,,,,,,,,,,,,,,,,,,,,,
362,NO.744,3/9/20,Cobb,GA,-84.576637,33.94148,,,,,,,,,,,,,,,,,,,,,
363,NO.745,3/9/20,Fayette,GA,-84.494272,33.413909,,,,,,,,,,,,,,,,,,,,,
364,NO.746,3/9/20,Gwinnett,GA,-84.023587,33.961189,,,,,,,,,,,,,,,,,,,,,
365,NO.747-748,3/9/20,DeKalb,GA,-84.226465,33.771537,,,,,,,,,,,,,,,,,,,,,
366,NO.749,3/9/20,Fairfax,VA,-77.277841,38.837998,,,,,,,,,,,,,,,,,,,,,
367,NO.750,3/9/20,Spotsylvania,VA,-77.655791,38.185624,,,,,,,,,,,,,,,,,,,,,
368,NO.751-753,3/9/20,Washington. D.C.,DC,-77.016257,38.904829,,,,,,,,,,,,,,,,,,,,,
369,NO.754,3/9/20,Eagle,CO,-106.695148,39.62785,,,,,,,,,,,,,,,,,,,,,
370,NO.755,3/9/20,Adams,IN,-84.936634,40.745651,,,,,,,,,,,,,,,,,,,,,
371,NO.756,3/9/20,San Diego,CA,-116.75641,33.033899,,,,,,,,,,,,,,,,,,,,,
372,NO.757,3/9/20,Arapahoe,CO,-104.339204,39.649767,,,,,,,,,,,,,,,,,,,,,
373,NO.758,3/9/20,Los Angeles,CA,-118.220938,34.342772,,,,,,,,,,,,,,,,,,,,,
374,NO.759-760,3/10/20,Norfolk,VA,-76.260984,36.8928,,,,,,,,,,,,,,,,,,,,,
375,NO.761,3/10/20,Broward,FL,-80.14357,26.12388,,,,,,,,,,,,,,,,,,,,,
376,NO.762-766,3/10/20,New York,NY,-74.00714,40.71455,,,,,,,,,,,,,,,,,,,,,
377,NO.767,3/10/20,Weber,UT,-111.86071,41.282941,,,,,,,,,,,,,,,,,,,,,
378,NO.768,3/10/20,Montgomery,PA,-75.367364,40.210894,,,,,,,,,,,,,,,,,,,,,
379,NO.769,3/10/20,Boone,IN,-86.468699,40.050745,,,,,,,,,,,,,,,,,,,,,
380,NO.770-780,3/10/20,New York,NY,-74.00714,40.71455,,,,,,,,,,,,,,,,,,,,,
381,NO.781-782,3/10/20,Prince George  s,MD,-76.845871,38.828386,,,,,,,,,,,,,,,,,,,,,
382,NO.773-784,3/10/20,Nassau,NY,-73.588996,40.741652,,,,,,,,,,,,,,,,,,,,,
383,NO.785,3/10/20,Dane,WI,-89.418214,43.067322,,,,,,,,,,,,,,,,,,,,,
384,NO.786-787,3/10/20,Collin,TX,-96.572725,33.18804,,,,,,,,,,,,,,,,,,,,,
385,NO.788,3/10/20,Tulsa,OK,-95.941464,36.121067,,,,,,,,,,,,,,,,,,,,,
386,NO.789-798,3/10/20,Westchester,NY,-73.756063,41.163198,,,,,,,,,,,,,,,,,,,,,
387,NO.799,3/10/20,Loudoun,VA,-77.635648,39.090699,,,,,,,,,,,,,,,,,,,,,
388,NO.800-801,3/10/20,Williamson,TN,-86.89864,35.893827,,,,,,,,,,,,,,,,,,,,,
389,NO.802,3/10/20,Gregg,TX,-94.816991,32.480625,,,,,,,,,,,,,,,,,,,,,
390,NO.803,3/10/20,Bergen,NJ,-74.074442,40.959491,,,,,,,,,,,,,,,,,,,,,
391,NO.804,3/10/20,Arapahoe,CO,-104.339204,39.649767,,,,,,,,,,,,,,,,,,,,,
392,NO.805,3/10/20,Bergen,NJ,-74.074442,40.959491,,,,,,,,,,,,,,,,,,,,,
393,NO.806,3/10/20,Philadelphia,PA,-75.133921,40.007622,,,,,,,,,,,,,,,,,,,,,
394,NO.807-808,3/10/20,Burlington,NJ,-74.667901,39.877518,,,,,,,,,,,,,,,,,,,,,
395,NO.809,3/10/20,Gunnison,CO,-107.031584,38.666753,,,,,,,,,,,,,,,,,,,,,
396,NO.810,3/10/20,Eagle,CO,-106.695148,39.62785,,,,,,,,,,,,,,,,,,,,,
397,NO.811,3/10/20,San Francisco,CA,-122.41844,37.7794,,,,,,,,,,,,,,,,,,,,,
398,NO.812,3/10/20,Anoka,MN,-93.246042,45.273721,,,,,,,,,,,,,,,,,,,,,
399,NO.813,3/10/20,Multnomah,OR,-122.414564,45.544909,,,,,,,,,,,,,,,,,,,,,
400,NO.814,3/10/20,Sullivan,TN,-82.304495,36.512802,,,,,,,,,,,,,,,,,,,,,
401,NO.815-816,3/10/20,Rockland,NY,-74.02401,41.152374,,,,,,,,,,,,,,,,,,,,,
402,NO.817,3/10/20,Rockingham,NH,-71.128225,42.986738,,,,,,,,,,,,,,,,,,,,,
403,NO.818-823,3/10/20,Cook,IL,-87.816823,41.840149,,,,,,,,,,,,,,,,,,,,,
404,NO.824,3/10/20,Kane,IL,-88.428639,41.938876,,,,,,,,,,,,,,,,,,,,,
405,NO.825,3/10/20,McHenry,IL,-88.452431,42.324355,,,,,,,,,,,,,,,,,,,,,
406,NO.826-827,3/10/20,,LA,-91.421554,32.820291,,,,,,,,,,,,,,,,,,,,,
407,NO.828-853,3/10/20,Middlesex,MA,-71.391791,42.485594,,,,,,,,,,,,,,,,,,,,,
408,NO.854-855,3/10/20,Kershaw,SC,-80.590296,34.338922,,,,,,,,,,,,,,,,,,,,,
409,NO.856-929,3/10/20,King,WA,-121.804332,47.490118,,,,,,,,,,,,,,,,,,,,,
410,NO.930-946,3/10/20,Snohomish,WA,-121.6963,48.047349,,,,,,,,,,,,,,,,,,,,,
411,NO.947-948,3/10/20,RI,RI,-71.302789,41.502558,,,,,,,,,,,,,,,,,,,,,
412,NO.949-950,3/10/20,KY,KY,-83.340351,36.812916,,,,,,,,,,,,,,,,,,,,,
413,NO.951,3/10/20,Kitsap,WA,-122.608532,47.474962,,,,,,,,,,,,,,,,,,,,,
414,NO.952-961,3/10/20,Suffolk,MA,-71.075374,42.331892,,,,,,,,,,,,,,,,,,,,,
415,NO.962-973,3/10/20,Norfolk,MA,-71.211596,42.160531,,,,,,,,,,,,,,,,,,,,,
416,NO.974-975,3/10/20,Berkshire,MA,-73.20638,42.370629,,,,,,,,,,,,,,,,,,,,,
417,NO.976,3/10/20,Essex,MA,-70.953777,42.673833,,,,,,,,,,,,,,,,,,,,,
418,NO.977-988,3/10/20,Pierce,WA,-122.101441,47.022708,,,,,,,,,,,,,,,,,,,,,
419,NO.989,3/10/20,Skagit,WA,-121.72808,48.47933,,,,,,,,,,,,,,,,,,,,,
420,NO.990,3/10/20,Dallas,TX,-96.777794,32.766585,,,,,,,,,,,,,,,,,,,,,
421,NO.991,3/10/20,Pennington,SD,-102.823901,44.003745,,,,,,,,,,,,,,,,,,,,,
422,NO.992,3/10/20,Beadle,SD,-98.27811,44.414485,,,,,,,,,,,,,,,,,,,,,
423,NO.993,3/10/20,Charles Mix,SD,-98.57667,43.207475,,,,,,,,,,,,,,,,,,,,,
424,NO.994,3/10/20,Davidson,SD,-98.145959,43.674728,,,,,,,,,,,,,,,,,,,,,
425,NO.995,3/10/20,Montgomery,MD,-77.204032,39.136368,,,,,,,,,,,,,,,,,,,,,
426,NO.996,3/10/20,Minnehaha,SD,-96.791425,43.674178,,,,,,,,,,,,,,,,,,,,,
427,NO.997-998,3/10/20,Santa Clara,CA,-121.694797,37.23174,,,,,,,,,,,,,,,,,,,,,
428,NO.999-1005,3/10/20,,CA,-117.461551,34.266093,,,,,,,,,,,,,,,,,,,,,
429,NO.1006-1010,3/10/20,IA,IA,-95.565991,40.882262,,,,,,,,,,,,,,,,,,,,,
430,NO.1011,3/10/20,Tarrant,TX,-97.291196,32.771544,,,,,,,,,,,,,,,,,,,,,
431,NO.1012,3/10/20,Douglas,NE,-96.155334,41.295352,,,,,,,,,,,,,,,,,,,,,
432,NO.1013-1018,3/10/20,Snohomish,WA,-121.6963,48.047349,,,,,,,,,,,,,,,,,,,,,
433,NO.1019,3/10/20,Whatcom,WA,-121.717418,48.825597,,,,,,,,,,,,,,,,,,,,,
434,NO.1020-1022,3/10/20,Solano,CA,-121.927241,38.277934,,,,,,,,,,,,,,,,,,,,,
435,NO.1023,3/10/20,Unknown,GA,-83.006037,30.907355,,,,,,,,,,,,,,,,,,,,,
436,NO.1024,3/10/20,Alameda,CA,-121.887644,37.646501,,,,,,,,,,,,,,,,,,,,,
437,NO.1025,3/10/20,San Joaquin,CA,-121.271311,37.934796,,,,,,,,,,,,,,,,,,,,,
438,NO.1026-1027,3/10/20,Calaveras,CA,-120.554065,38.204736,,,,,,,,,,,,,,,,,,,,,
439,NO.1028,3/11/20,Cobb,GA,-84.576637,33.94148,,,,,,,,,,,,,,,,,,,,,
440,NO.1029,3/10/20,Sacramento,CA,-121.343895,38.449858,,,,,,,,,,,,,,,,,,,,,
441,NO.1030,3/11/20,Snohomish,WA,-121.6963,48.047349,,,,,,,,,,,,,,,,,,,,,
442,NO.1031,3/10/20,Contra Costa,CA,-121.925935,37.917937,,,,,,,,,,,,,,,,,,,,,
443,NO.1032,3/10/20,Fresno,CA,-119.649194,36.758275,,,,,,,,,,,,,,,,,,,,,
444,NO.1033,3/10/20,Denver,CO,-104.9847,39.73915,,,,,,,,,,,,,,,,,,,,,
445,NO.1034,3/10/20,Jefferson,CO,-105.250402,39.586432,,,,,,,,,,,,,,,,,,,,,
446,NO.1035,3/10/20,Harris,TX,-95.393111,29.857628,,,,,,,,,,,,,,,,,,,,,
447,NO.1036-1037,3/10/20,Suffolk,NY,-72.85898,40.877328,,,,,,,,,,,,,,,,,,,,,
448,NO.1038,3/10/20,Oakland,MI,-83.3858,42.660374,,,,,,,,,,,,,,,,,,,,,
449,NO.1039,3/10/20,Wayne,MI,-83.282201,42.28208,,,,,,,,,,,,,,,,,,,,,
450,NO.1040,3/10/20,Montgomery,TX,-95.503049,30.300205,,,,,,,,,,,,,,,,,,,,,
451,NO.1041,3/10/20,Alachua,FL,-82.357731,29.674819,,,,,,,,,,,,,,,,,,,,,
452,NO.1042,3/10/20,Dallas,TX,-96.777794,32.766585,,,,,,,,,,,,,,,,,,,,,
453,NO.1043,3/10/20,Sacramento,CA,-121.343895,38.449858,,,,,,,,,,,,,,,,,,,,,
454,NO.1044,3/10/20,Fulton,GA,-84.46711,33.790241,,,,,,,,,,,,,,,,,,,,,
455,NO.1045-1047,3/10/20,Cobb,GA,-84.576637,33.94148,,,,,,,,,,,,,,,,,,,,,
456,NO.1048,3/10/20,Charlton,GA,-82.137765,30.781711,,,,,,,,,,,,,,,,,,,,,
457,NO.1049-1050,3/10/20,Bucks,PA,-75.106794,40.33694,,,,,,,,,,,,,,,,,,,,,
458,NO.1051,3/10/20,Orleans,LA,-78.231247,43.252101,,,,,,,,,,,,,,,,,,,,,
459,NO.1052,3/10/20,Nassau,FL,-81.80174,30.610777,,,,,,,,,,,,,,,,,,,,,
460,NO.1053-1055,3/10/20,Collier,FL,-81.340133,26.116256,,,,,,,,,,,,,,,,,,,,,
461,NO.1056-1057,3/10/20,Pinellas,FL,-82.72194,27.931339,,,,,,,,,,,,,,,,,,,,,
462,NO.1058,3/10/20,Pasco,FL,-82.39152,28.309226,,,,,,,,,,,,,,,,,,,,,
463,NO.1059,3/10/20,Island,WA,-122.665007,48.191609,,,,,,,,,,,,,,,,,,,,,
464,NO.1060-1062,3/10/20,Santa Clara,CA,-121.694797,37.23174,,,,,,,,,,,,,,,,,,,,,
465,NO.1063,3/10/20,Knox,NE,-97.894636,42.631655,,,,,,,,,,,,,,,,,,,,,
466,NO.1064,3/10/20,Alameda,CA,-121.887644,37.646501,,,,,,,,,,,,,,,,,,,,,
467,NO.1065,3/10/20,Orleans,LA,-78.231247,43.252101,,,,,,,,,,,,,,,,,,,,,
468,NO.1066,3/10/20,Orleans,LA,-78.231247,43.252101,,,,,,,,,,,,,,,,,,,,,
469,NO.1067,3/10/20,Orleans,LA,-78.231247,43.252101,,,,,,,,,,,,,,,,,,,,,
470,NO.1068-1079,3/11/20,New York,NY,-74.00714,40.71455,,,,,,,,,,,,,,,,,,,,,
471,NO.1080-1081,3/11/20,Westchester,NY,-73.756063,41.163198,,,,,,,,,,,,,,,,,,,,,
472,NO.1082-1084,3/11/20,Johnson,IN,-86.101608,39.489982,,,,,,,,,,,,,,,,,,,,,
473,NO.1085,3/11/20,Howard,IN,-86.11686,40.483596,,,,,,,,,,,,,,,,,,,,,
474,NO.1086,3/11/20,Hanover,VA,-77.490914,37.760222,,,,,,,,,,,,,,,,,,,,,
475,NO.1087,3/11/20,Montgomery,PA,-75.367364,40.210894,,,,,,,,,,,,,,,,,,,,,
476,NO.1088-1089,3/11/20,Socorro,NM,-106.93043,34.007143,,,,,,,,,,,,,,,,,,,,,
477,NO.1090,3/11/20,Bernalillo,NM,-106.670313,35.051285,,,,,,,,,,,,,,,,,,,,,
478,NO.1091,3/11/20,,AR,-92.0278224,34.2094783,,,,,,,,,,,,,,,,,,,,,
479,NO.1092-1097,3/11/20,San Mateo,CA,-122.32863,37.422133,,,,,,,,,,,,,,,,,,,,,
480,NO.1098-1099,3/11/20,Middlesex,NJ,-74.411108,40.439575,,,,,,,,,,,,,,,,,,,,,
481,NO.1110,3/11/20,Maricopa,AZ,-112.491279,33.348825,,,,,,,,,,,,,,,,,,,,,
482,NO.1111-1112,3/11/20,Pinal,AZ,-111.344765,32.90432,,,,,,,,,,,,,,,,,,,,,
483,NO.1113,3/11/20,Olmsted,MN,-92.401818,44.003799,,,,,,,,,,,,,,,,,,,,,
484,NO.1114-1116,3/11/20,Pitkin,CO,-106.916735,39.217125,,,,,,,,,,,,,,,,,,,,,
485,NO.1117,3/11/20,Stark,OH,-81.365656,40.81391,,,,,,,,,,,,,,,,,,,,,
486,NO.1118-1126,3/11/20,Nassau,NY,-73.588996,40.741652,,,,,,,,,,,,,,,,,,,,,
487,NO.1127,3/11/20,Stanislaus,CA,-120.997662,37.559326,,,,,,,,,,,,,,,,,,,,,
488,NO.1128,3/11/20,Stanislaus,CA,-120.997662,37.559326,,,,,,,,,,,,,,,,,,,,,
489,NO.1129,3/11/20,Ramsey,MN,-93.099617,45.018122,,,,,,,,,,,,,,,,,,,,,
490,NO.1130-1137,3/11/20,Snohomish,WA,-121.6963,48.047349,,,,,,,,,,,,,,,,,,,,,
491,NO.1138,3/11/20,Arapahoe,CO,-104.339204,39.649767,,,,,,,,,,,,,,,,,,,,,
492,NO.1139-1140,3/11/20,Gunnison,CO,-107.031584,38.666753,,,,,,,,,,,,,,,,,,,,,
493,NO.1141-1142,3/11/20,Jefferson,CO,-105.250402,39.586432,,,,,,,,,,,,,,,,,,,,,
494,NO.1143,3/11/20,Unknown,MT,-110.447831,46.438077,,,,,,,,,,,,,,,,,,,,,
495,NO.1144-1147,3/11/20,Bergen,NJ,-74.074442,40.959491,,,,,,,,,,,,,,,,,,,,,
496,NO.1148,3/11/20,Eagle,CO,-106.695148,39.62785,,,,,,,,,,,,,,,,,,,,,
497,NO.1149-1150,3/11/20,Monmouth,NJ,-74.221946,40.260041,,,,,,,,,,,,,,,,,,,,,
498,NO.1151,3/11/20,Denver,CO,-104.9847,39.73915,,,,,,,,,,,,,,,,,,,,,
499,NO.1152,3/11/20,Los Angeles,CA,-118.220938,34.342772,,,,,,,,,,,,,,,,,,,,,
500,NO.1153-1158,3/11/20,Los Angeles,CA,-118.220938,34.342772,,,,,,,,,,,,,,,,,,,,,
501,NO.1159-1163,3/11/20,Cook,IL,-87.816823,41.840149,,,,,,,,,,,,,,,,,,,,,
502,NO.1164,3/11/20,St. Joseph,IN,-86.289911,41.61672,,,,,,,,,,,,,,,,,,,,,
503,NO.1165,3/11/20,Thurston,WA,-122.829869,46.919806,,,,,,,,,,,,,,,,,,,,,
504,NO.1166,3/11/20,Fairfield,CT,-73.388791,41.273247,,,,,,,,,,,,,,,,,,,,,
505,NO.1167-1169,3/11/20,Clark,NV,-115.024691,36.2171,,,,,,,,,,,,,,,,,,,,,
506,NO.1170,3/11/20,Davidson,TN,-86.784757,36.169561,,,,,,,,,,,,,,,,,,,,,
507,NO.1171,3/11/20,New Castle,DE,-75.639037,39.578044,,,,,,,,,,,,,,,,,,,,,
508,NO.1172,3/11/20,Polk,OR,-123.412778,44.903735,,,,,,,,,,,,,,,,,,,,,
509,NO.1173,3/11/20,Marion,OR,-122.584168,44.90316,,,,,,,,,,,,,,,,,,,,,
510,NO.1174,3/11/20,Umatilla,OR,-118.735272,45.590696,,,,,,,,,,,,,,,,,,,,,
511,NO.1175,3/11/20,Deschutes,OR,-121.228128,43.914969,,,,,,,,,,,,,,,,,,,,,
512,NO.1176,3/11/20,Monroe,PA,-75.339398,41.058116,,,,,,,,,,,,,,,,,,,,,
513,NO.1177,3/11/20,Williamson,TN,-86.89864,35.893827,,,,,,,,,,,,,,,,,,,,,
514,NO.1178-1182,3/11/20,New York,NY,-74.00714,40.71455,,,,,,,,,,,,,,,,,,,,,
515,NO.1183,3/11/20,Lake,IL,-88.003535,42.323276,,,,,,,,,,,,,,,,,,,,,
516,NO.1184-1186,3/11/20,Middlesex,MA,-71.391791,42.485594,,,,,,,,,,,,,,,,,,,,,
517,NO.1187-1192,3/11/20,Washington. D.C.,DC,-77.016257,38.904829,,,,,,,,,,,,,,,,,,,,,
518,NO.1193-1198,3/11/20,Pitkin,CO,-106.916735,39.217125,,,,,,,,,,,,,,,,,,,,,
519,NO.1199,3/11/20,Summit,UT,-110.955846,40.868099,,,,,,,,,,,,,,,,,,,,,
520,NO.1200,3/11/20,Denver,CO,-104.9847,39.73915,,,,,,,,,,,,,,,,,,,,,
521,NO.1201-1244,3/11/20,King,WA,-121.804332,47.490118,,,,,,,,,,,,,,,,,,,,,
522,NO.1245,3/11/20,Kittitas,WA,-120.683616,47.125059,,,,,,,,,,,,,,,,,,,,,
523,NO.1246-1281,3/11/20,Unassigned,WA,-120.556263,47.411252,,,,,,,,,,,,,,,,,,,,,
524,NO.1282,3/11/20,Lancaster,SC,-80.70541,34.686891,,,,,,,,,,,,,,,,,,,,,
525,NO.1283-1284,3/11/20,Fond du Lac,WI,-88.492798,43.747318,,,,,,,,,,,,,,,,,,,,,
526,NO.1285,3/11/20,Waukesha,WI,-88.304567,43.018276,,,,,,,,,,,,,,,,,,,,,
527,NO.1286-1287,3/11/20,Minnehaha,SD,-96.791425,43.674178,,,,,,,,,,,,,,,,,,,,,
528,NO.1288,3/11/20,Bon Homme,SD,-97.88667,42.99336,,,,,,,,,,,,,,,,,,,,,
529,NO.1289,3/11/20,Dallas,TX,-96.777794,32.766585,,,,,,,,,,,,,,,,,,,,,
530,NO.1290,3/11/20,Miami-Dade,FL,-80.567908,25.614182,,,,,,,,,,,,,,,,,,,,,
531,NO.1291-1297,3/11/20,Snohomish,WA,-121.6963,48.047349,,,,,,,,,,,,,,,,,,,,,
532,NO.1298-1301,3/11/20,Orleans,LA,-78.231247,43.252101,,,,,,,,,,,,,,,,,,,,,
533,NO.1302,3/11/20,Johnson,IA,-91.588054,41.671496,,,,,,,,,,,,,,,,,,,,,
534,NO.1303,3/11/20,Chittenden,VT,-73.05405,44.457995,,,,,,,,,,,,,,,,,,,,,
535,NO.1304,3/11/20,Wake,NC,-78.650398,35.790108,,,,,,,,,,,,,,,,,,,,,
536,NO.1305,3/11/20,Montgomery,MD,-77.204032,39.136368,,,,,,,,,,,,,,,,,,,,,
537,NO.1306,3/11/20,Baltimore,MD,-76.633639,39.458477,,,,,,,,,,,,,,,,,,,,,
538,NO.1307,3/11/20,Lowndes,GA,-83.267696,30.833628,,,,,,,,,,,,,,,,,,,,,
539,NO.1308,3/11/20,Prince George  s,MD,-76.845871,38.828386,,,,,,,,,,,,,,,,,,,,,
540,NO.1309,3/11/20,Forrest,MS,-89.257835,31.188839,,,,,,,,,,,,,,,,,,,,,
541,NO.1310-1311,3/11/20,Santa Cruz,CA,-122.001609,37.056236,,,,,,,,,,,,,,,,,,,,,
542,NO.1312,3/11/20,Durham,NC,-78.876421,36.036086,,,,,,,,,,,,,,,,,,,,,
543,NO.1313,3/11/20,Santa Fe,NM,-105.976244,35.506812,,,,,,,,,,,,,,,,,,,,,
544,NO.1314-1317,3/11/20,Douglas,NE,-96.155334,41.295352,,,,,,,,,,,,,,,,,,,,,
545,NO.1318,3/11/20,St. Tammany,LA,-89.938545,30.446658,,,,,,,,,,,,,,,,,,,,,
546,NO.1319,3/11/20,Caddo,LA,-93.879779,32.576659,,,,,,,,,,,,,,,,,,,,,
547,NO.1320,3/11/20,Iberia,LA,-91.729543,29.898011,,,,,,,,,,,,,,,,,,,,,
548,NO.1321,3/11/20,Cobb,GA,-84.576637,33.94148,,,,,,,,,,,,,,,,,,,,,
549,NO.1322-1323,3/11/20,DeKalb,GA,-84.226465,33.771537,,,,,,,,,,,,,,,,,,,,,
550,NO.1324,3/11/20,Lee,GA,-84.14088,31.779597,,,,,,,,,,,,,,,,,,,,,
551,NO.1325,3/11/20,Los Angeles,CA,-118.220938,34.342772,,,,,,,,,,,,,,,,,,,,,
552,NO.1326,3/11/20,Floyd,GA,-85.214528,34.263242,,,,,,,,,,,,,,,,,,,,,
553,NO.1327-1329,3/11/20,Bartow,GA,-84.840729,34.237644,,,,,,,,,,,,,,,,,,,,,
554,NO.1330,3/11/20,Sheridan County,WY,-106.879528,44.789985,,,,,,,,,,,,,,,,,,,,,
555,NO.1331,3/11/20,Broward,FL,-80.14357,26.12388,,,,,,,,,,,,,,,,,,,,,
556,NO.1332,3/11/20,Ward,ND,-101.541818,48.221681,,,,,,,,,,,,,,,,,,,,,
557,NO.1333-1334,3/11/20,Linn,OR,-122.534398,44.488741,,,,,,,,,,,,,,,,,,,,,
558,NO.1335,3/11/20,Harris,TX,-95.393111,29.857628,,,,,,,,,,,,,,,,,,,,,
559,NO.1336,3/11/20,Monroe,NY,-77.696749,43.146043,,,,,,,,,,,,,,,,,,,,,
560,NO.1337,3/11/20,Westmoreland,VA,-76.801378,38.11146,,,,,,,,,,,,,,,,,,,,,
561,NO.1338,3/11/20,Riverside,CA,-115.993923,33.746112,,,,,,,,,,,,,,,,,,,,,
562,NO.1339,3/11/20,Tulare,CA,-118.800326,36.22019,,,,,,,,,,,,,,,,,,,,,
563,NO.1340,3/11/20,,UT,-111.381224,41.874421,,,,,,,,,,,,,,,,,,,,,
564,NO.1341,3/11/20,Ventura,CA,-119.083619,34.45675,,,,,,,,,,,,,,,,,,,,,
565,NO.1342,3/11/20,Orange,CA,-117.760595,33.703222,,,,,,,,,,,,,,,,,,,,,
566,NO.1343-1344,3/11/20,Marin,CA,-122.719535,38.071887,,,,,,,,,,,,,,,,,,,,,
567,NO.1345,3/11/20,St. Johns,FL,-81.440291,29.901629,,,,,,,,,,,,,,,,,,,,,
568,NO.1346,3/11/20,Trumbull,OH,-80.761183,41.317067,,,,,,,,,,,,,,,,,,,,,
569,NO.1347,3/11/20,Marion,IN,-86.138415,39.781744,,,,,,,,,,,,,,,,,,,,,
570,NO.1348,3/11/20,Alexandria City,VA,-77.08623,38.818386,,,,,,,,,,,,,,,,,,,,,
571,NO.1349-1350,3/12/20,Suffolk,NY,-72.85898,40.877328,,,,,,,,,,,,,,,,,,,,,
572,NO.1351,3/12/20,Ulster,NY,-74.258374,41.888112,,,,,,,,,,,,,,,,,,,,,
573,NO.1352,3/12/20,Broward,FL,-80.14357,26.12388,,,,,,,,,,,,,,,,,,,,,
574,NO.1353,3/12/20,Broward,FL,-80.14357,26.12388,,,,,,,,,,,,,,,,,,,,,
575,NO.1354,3/12/20,Lee,FL,-81.824685,26.579652,,,,,,,,,,,,,,,,,,,,,
576,NO.1355-1363,3/12/20,New York,NY,-74.00714,40.71455,,,,,,,,,,,,,,,,,,,,,
577,NO.1364,3/12/20,Forsyth,NC,-80.256302,36.130537,,,,,,,,,,,,,,,,,,,,,
578,NO.1365,3/12/20,Forsyth,NC,-80.256302,36.130537,,,,,,,,,,,,,,,,,,,,,
579,NO.1366,3/12/20,Johnston,NC,-78.365739,35.517656,,,,,,,,,,,,,,,,,,,,,
580,NO.1367-1370,3/12/20,Montgomery,PA,-75.367364,40.210894,,,,,,,,,,,,,,,,,,,,,
581,NO.1371,3/12/20,Northampton,PA,-75.307595,40.754122,,,,,,,,,,,,,,,,,,,,,
582,NO.1372,3/12/20,Albany,NY,-73.973605,42.600135,,,,,,,,,,,,,,,,,,,,,
583,NO.1373,3/12/20,Albany,NY,-73.973605,42.600135,,,,,,,,,,,,,,,,,,,,,
584,NO.1374-1386,3/12/20,Nassau,NY,-73.588996,40.741652,,,,,,,,,,,,,,,,,,,,,
585,NO.1387,3/12/20,Orleans,LA,-78.231247,43.252101,,,,,,,,,,,,,,,,,,,,,
586,NO.1388,3/12/20,Montgomery,TX,-95.503049,30.300205,,,,,,,,,,,,,,,,,,,,,
587,NO.1389-1390,3/12/20,Mecklenburg,NC,-80.830806,35.241478,,,,,,,,,,,,,,,,,,,,,
588,NO.1391-1393,3/12/20,,DE,-75.684135,39.596017,,,,,,,,,,,,,,,,,,,,,
589,NO.1394-1395,3/12/20,,VA,-81.278691,37.216569,,,,,,,,,,,,,,,,,,,,,
590,NO.1396-1398,3/12/20,Johnson,KS,-94.822225,38.883773,,,,,,,,,,,,,,,,,,,,,
591,NO.1399,3/12/20,Fairfield,CT,-73.388791,41.273247,,,,,,,,,,,,,,,,,,,,,
592,NO.1400,3/12/20,Androscoggin,ME,-70.206459,44.165876,,,,,,,,,,,,,,,,,,,,,
593,NO.1401,3/12/20,Orange,NY,-74.305596,41.402068,,,,,,,,,,,,,,,,,,,,,
594,NO.1402,3/12/20,,AR,-92.2984282,34.7394925,,,,,,,,,,,,,,,,,,,,,
595,NO.1403-1404,3/12/20,Imperial,CA,-115.335515,33.022684,,,,,,,,,,,,,,,,,,,,,
596,NO.1405-1406,3/12/20,San Mateo,CA,-122.32863,37.422133,,,,,,,,,,,,,,,,,,,,,
597,NO.1407,3/12/20,Saratoga,NY,-73.861385,43.105506,,,,,,,,,,,,,,,,,,,,,
598,NO.1408,3/12/20,Dakota,MN,-93.066678,44.670981,,,,,,,,,,,,,,,,,,,,,
599,NO.1409-1410,3/12/20,Bergen,NJ,-74.074442,40.959491,,,,,,,,,,,,,,,,,,,,,
600,NO.1411-1414,3/12/20,San Francisco,CA,-122.41844,37.7794,,,,,,,,,,,,,,,,,,,,,
601,NO.1415,3/12/20,Rockingham,NH,-71.128225,42.986738,,,,,,,,,,,,,,,,,,,,,
602,NO.1416,3/12/20,Harris,TX,-95.393111,29.857628,,,,,,,,,,,,,,,,,,,,,
603,NO.1417-1419,3/12/20,Clark,NV,-115.024691,36.2171,,,,,,,,,,,,,,,,,,,,,
604,NO.1420-1429,3/12/20,Suffolk,NY,-72.85898,40.877328,,,,,,,,,,,,,,,,,,,,,
605,NO.1430,3/12/20,,UT,-111.381224,41.874421,,,,,,,,,,,,,,,,,,,,,
606,NO.1431,3/12/20,Pike,PA,-75.033824,41.332025,,,,,,,,,,,,,,,,,,,,,
607,NO.1432,3/12/20,Seminole,FL,-81.236323,28.717001,,,,,,,,,,,,,,,,,,,,,
608,NO.1433,3/12/20,Bernalillo,NM,-106.670313,35.051285,,,,,,,,,,,,,,,,,,,,,
609,NO.1434-1436,3/12/20,San Mateo,CA,-122.32863,37.422133,,,,,,,,,,,,,,,,,,,,,
610,NO.1437,3/12/20,Essex,NJ,-74.247601,40.787793,,,,,,,,,,,,,,,,,,,,,
611,NO.1438,3/12/20,Monmouth,NJ,-74.221946,40.260041,,,,,,,,,,,,,,,,,,,,,
612,NO.1439,3/12/20,Morris,NJ,-74.544274,40.862019,,,,,,,,,,,,,,,,,,,,,
613,NO.1440,3/12/20,Somerset,NJ,-74.616273,40.563611,,,,,,,,,,,,,,,,,,,,,
614,NO.1441-1443,3/12/20,Denver,CO,-104.9847,39.73915,,,,,,,,,,,,,,,,,,,,,
615,NO.1444-1446,3/12/20,Eagle,CO,-106.695148,39.62785,,,,,,,,,,,,,,,,,,,,,
616,NO.1447,3/12/20,Gunnison,CO,-107.031584,38.666753,,,,,,,,,,,,,,,,,,,,,
617,NO.1448,3/12/20,Jefferson,CO,-105.250402,39.586432,,,,,,,,,,,,,,,,,,,,,
618,NO.1449,3/12/20,Pitkin,CO,-106.916735,39.217125,,,,,,,,,,,,,,,,,,,,,
619,NO.1450,3/12/20,Riverside,CA,-115.993923,33.746112,,,,,,,,,,,,,,,,,,,,,
620,NO.1451-1452,3/12/20,Adams,CO,-104.336635,39.873759,,,,,,,,,,,,,,,,,,,,,
621,NO.1453-1456,3/12/20,,AR,-92.2984282,34.7394925,,,,,,,,,,,,,,,,,,,,,
622,NO.1457-1489,3/12/20,New York,NY,-74.00714,40.71455,,,,,,,,,,,,,,,,,,,,,
623,NO.1490,3/12/20,Orange,NY,-74.305596,41.402068,,,,,,,,,,,,,,,,,,,,,
624,NO.1491-1494,3/12/20,Davidson,TN,-86.784757,36.169561,,,,,,,,,,,,,,,,,,,,,
625,NO.1495,3/12/20,Rockland,NY,-74.02401,41.152374,,,,,,,,,,,,,,,,,,,,,
626,NO.1496-1499,3/12/20,Suffolk,NY,-72.85898,40.877328,,,,,,,,,,,,,,,,,,,,,
627,NO.1500,3/12/20,Jackson,OK,-99.416047,34.586625,,,,,,,,,,,,,,,,,,,,,
628,NO.1501-1502,3/12/20,Ulster,NY,-74.258374,41.888112,,,,,,,,,,,,,,,,,,,,,
629,NO.1503-1529,3/12/20,Westchester,NY,-73.756063,41.163198,,,,,,,,,,,,,,,,,,,,,
630,NO.1530,3/12/20,Delaware,NY,-74.966352,42.198043,,,,,,,,,,,,,,,,,,,,,
631,NO.1531,3/12/20,Fairfax,VA,-77.277841,38.837998,,,,,,,,,,,,,,,,,,,,,
632,NO.1532,3/12/20,Dutchess,NY,-73.742817,41.764775,,,,,,,,,,,,,,,,,,,,,
633,NO.1533,3/12/20,Herkimer,NY,-74.962479,43.419371,,,,,,,,,,,,,,,,,,,,,
634,NO.1534-1536,3/12/20,Williamson,TN,-86.89864,35.893827,,,,,,,,,,,,,,,,,,,,,
635,NO.1537,3/12/20,Knox,TN,-83.934652,35.995607,,,,,,,,,,,,,,,,,,,,,
636,NO.1538,3/12/20,Shelby,TN,-89.887436,35.185009,,,,,,,,,,,,,,,,,,,,,
637,NO.1539,3/12/20,Monroe,NY,-77.696749,43.146043,,,,,,,,,,,,,,,,,,,,,
638,NO.1540,3/12/20,Fairfax,VA,-77.277841,38.837998,,,,,,,,,,,,,,,,,,,,,
639,NO.1541-1543,3/12/20,Snohomish,WA,-121.6963,48.047349,,,,,,,,,,,,,,,,,,,,,
640,NO.1544,3/12/20,Unknown,MA,-72.62246,42.666489,,,,,,,,,,,,,,,,,,,,,
641,NO.1545-1547,3/12/20,Santa Clara,CA,-121.694797,37.23174,,,,,,,,,,,,,,,,,,,,,
642,NO.1548,3/12/20,Loudoun,VA,-77.635648,39.090699,,,,,,,,,,,,,,,,,,,,,
643,NO.1549-1550,3/12/20,Berkshire,MA,-73.20638,42.370629,,,,,,,,,,,,,,,,,,,,,
644,NO.1551-1555,3/12/20,Middlesex,MA,-71.391791,42.485594,,,,,,,,,,,,,,,,,,,,,
645,NO.1556,3/12/20,Essex,MA,-70.953777,42.673833,,,,,,,,,,,,,,,,,,,,,
646,NO.1557,3/12/20,Norfolk,MA,-71.211596,42.160531,,,,,,,,,,,,,,,,,,,,,
647,NO.1558-1560,3/12/20,Suffolk,MA,-71.075374,42.331892,,,,,,,,,,,,,,,,,,,,,
648,NO.1561,3/12/20,Fairfield,CT,-73.388791,41.273247,,,,,,,,,,,,,,,,,,,,,
649,NO.1562,3/12/20,Hancock,IN,-85.773223,39.823532,,,,,,,,,,,,,,,,,,,,,
650,NO.1563-1564,3/12/20,Dane,WI,-89.418214,43.067322,,,,,,,,,,,,,,,,,,,,,
651,NO.1565,3/12/20,Forsyth,NC,-80.256302,36.130537,,,,,,,,,,,,,,,,,,,,,
652,NO.1566-1569,3/12/20,Los Angeles,CA,-118.220938,34.342772,,,,,,,,,,,,,,,,,,,,,
653,NO.1570,3/12/20,Lancaster,SC,-80.70541,34.686891,,,,,,,,,,,,,,,,,,,,,
654,NO.1571,3/12/20,Kershaw,SC,-80.590296,34.338922,,,,,,,,,,,,,,,,,,,,,
655,NO.1572-1575,3/12/20,San Diego,CA,-116.75641,33.033899,,,,,,,,,,,,,,,,,,,,,
656,NO.1576-1611,3/12/20,King,WA,-121.804332,47.490118,,,,,,,,,,,,,,,,,,,,,
657,NO.1612-1644,3/12/20,Snohomish,WA,-121.6963,48.047349,,,,,,,,,,,,,,,,,,,,,
658,NO.1645,3/12/20,Arlington,VA,-77.100957,38.878532,,,,,,,,,,,,,,,,,,,,,
659,NO.1646,3/12/20,Stearns,MN,-94.613757,45.552097,,,,,,,,,,,,,,,,,,,,,
660,NO.1647,3/12/20,Ramsey,MN,-93.099617,45.018122,,,,,,,,,,,,,,,,,,,,,
661,NO.1648,3/12/20,Hennepin,MN,-93.474932,45.005758,,,,,,,,,,,,,,,,,,,,,
662,NO.1649,3/12/20,Jefferson,KY,-85.654995,38.18589,,,,,,,,,,,,,,,,,,,,,
663,NO.1650,3/12/20,Montgomery,TX,-95.503049,30.300205,,,,,,,,,,,,,,,,,,,,,
664,NO.1651,3/12/20,Fayette,KY,-84.458687,38.042272,,,,,,,,,,,,,,,,,,,,,
665,NO.1652,3/12/20,Montgomery,TX,-95.503049,30.300205,,,,,,,,,,,,,,,,,,,,,
666,NO.1653-1658,3/12/20,Sacramento,CA,-121.343895,38.449858,,,,,,,,,,,,,,,,,,,,,
667,NO.1659-1662,3/12/20,Orleans,LA,-78.231247,43.252101,,,,,,,,,,,,,,,,,,,,,
668,NO.1663,3/12/20,Jefferson,LA,-90.1488652,29.8442458,,,,,,,,,,,,,,,,,,,,,
669,NO.1664,3/12/20,Bangor,ME,-68.951568,44.762685,,,,,,,,,,,,,,,,,,,,,
670,NO.1665,3/12/20,St. Clair,MI,-82.680866,42.939256,,,,,,,,,,,,,,,,,,,,,
671,NO.1666,3/12/20,Cook,IL,-87.816823,41.840149,,,,,,,,,,,,,,,,,,,,,
672,NO.1667,3/12/20,Cook,IL,-87.816823,41.840149,,,,,,,,,,,,,,,,,,,,,
673,NO.1668,3/12/20,Kane,IL,-88.428639,41.938876,,,,,,,,,,,,,,,,,,,,,
674,NO.1669-1671,3/12/20,Cook,IL,-87.816823,41.840149,,,,,,,,,,,,,,,,,,,,,
675,NO.1672,3/12/20,McHenry,IL,-88.452431,42.324355,,,,,,,,,,,,,,,,,,,,,
676,NO.1673-1674,3/12/20,Washington,OR,-123.098408,45.56006,,,,,,,,,,,,,,,,,,,,,
677,NO.1675,3/12/20,Clackamas,OR,-122.220913,45.1882,,,,,,,,,,,,,,,,,,,,,
678,NO.1676-1682,3/12/20,Contra Costa,CA,-121.925935,37.917937,,,,,,,,,,,,,,,,,,,,,
679,NO.1683,3/12/20,Greene,MO,-93.342019,37.25804,,,,,,,,,,,,,,,,,,,,,
680,NO.1684,3/12/20,Johnson,IA,-91.588054,41.671496,,,,,,,,,,,,,,,,,,,,,
681,NO.1685,3/12/20,Carroll,IA,-94.860554,42.036246,,,,,,,,,,,,,,,,,,,,,
682,NO.1686-1689,3/12/20,Clark,NV,-115.024691,36.2171,,,,,,,,,,,,,,,,,,,,,
683,NO.1690,3/12/20,Collin,TX,-96.572725,33.18804,,,,,,,,,,,,,,,,,,,,,
684,NO.1691,3/12/20,Wake,NC,-78.650398,35.790108,,,,,,,,,,,,,,,,,,,,,
685,NO.1692,3/12/20,,NC,-76.247543,36.342991,,,,,,,,,,,,,,,,,,,,,
686,NO.1693,3/12/20,Carson City,NV,-119.728894,39.151993,,,,,,,,,,,,,,,,,,,,,
687,NO.1694-1697,3/12/20,Eagle,CO,-106.695148,39.62785,,,,,,,,,,,,,,,,,,,,,
688,NO.1698,3/12/20,Harrisonburg,VA,-78.873489,38.436113,,,,,,,,,,,,,,,,,,,,,
689,NO.1699-1712,3/12/20,Santa Clara,CA,-121.694797,37.23174,,,,,,,,,,,,,,,,,,,,,
690,NO.1713,3/12/20,Wyandotte,KS,-94.765243,39.11407,,,,,,,,,,,,,,,,,,,,,
691,NO.1714,3/12/20,Middlesex,NJ,-74.411108,40.439575,,,,,,,,,,,,,,,,,,,,,
692,NO.1715,3/12/20,Grays Harbor,WA,-123.773743,47.150552,,,,,,,,,,,,,,,,,,,,,
693,NO.1716-1717,3/12/20,Island,WA,-122.665007,48.191609,,,,,,,,,,,,,,,,,,,,,
694,NO.1718,3/12/20,Kittitas,WA,-120.683616,47.125059,,,,,,,,,,,,,,,,,,,,,
695,NO.1719,3/12/20,Skagit,WA,-121.72808,48.47933,,,,,,,,,,,,,,,,,,,,,
696,NO.1720-1729,3/12/20,Unassigned,WA,-120.556263,47.411252,,,,,,,,,,,,,,,,,,,,,
697,NO.1730-1731,3/12/20,Alameda,CA,-121.887644,37.646501,,,,,,,,,,,,,,,,,,,,,
698,NO.1732,3/12/20,Anchorage,AK,-149.117077,61.15352,,,,,,,,,,,,,,,,,,,,,
699,NO.1733-1734,3/12/20,Oakland,MI,-83.3858,42.660374,,,,,,,,,,,,,,,,,,,,,
700,NO.1735,3/12/20,Ingham,MI,-84.373534,42.597092,,,,,,,,,,,,,,,,,,,,,
701,NO.1736-1738,3/12/20,Kent,MI,-85.549298,43.032162,,,,,,,,,,,,,,,,,,,,,
702,NO.1739,3/12/20,San Diego,CA,-116.75641,33.033899,,,,,,,,,,,,,,,,,,,,,
703,NO.1740,3/12/20,San Diego,CA,-116.75641,33.033899,,,,,,,,,,,,,,,,,,,,,
704,NO.1741,3/12/20,Montcalm,MI,-85.152502,43.310955,,,,,,,,,,,,,,,,,,,,,
705,NO.1742,3/12/20,San Diego,CA,-116.75641,33.033899,,,,,,,,,,,,,,,,,,,,,
706,NO.1743,3/12/20,San Diego,CA,-116.75641,33.033899,,,,,,,,,,,,,,,,,,,,,
707,NO.1744,3/12/20,San Diego,CA,-116.75641,33.033899,,,,,,,,,,,,,,,,,,,,,
708,NO.1745-1746,3/12/20,Washtenaw,MI,-83.838776,42.253229,,,,,,,,,,,,,,,,,,,,,
709,NO.1747,3/12/20,Montgomery,KY,-83.91303,38.033472,,,,,,,,,,,,,,,,,,,,,
710,NO.1748-1749,3/12/20,San Joaquin,CA,-121.271311,37.934796,,,,,,,,,,,,,,,,,,,,,
711,NO.1750,3/12/20,Santa Fe,NM,-105.976244,35.506812,,,,,,,,,,,,,,,,,,,,,
712,NO.1751,3/12/20,Camden,GA,-81.671128,30.932503,,,,,,,,,,,,,,,,,,,,,
713,NO.1752,3/12/20,Alachua,FL,-82.357731,29.674819,,,,,,,,,,,,,,,,,,,,,
714,NO.1753,3/12/20,Broward,FL,-80.14357,26.12388,,,,,,,,,,,,,,,,,,,,,
715,NO.1754,3/12/20,Hillsborough,FL,-82.307855,27.930231,,,,,,,,,,,,,,,,,,,,,
716,NO.1755,3/12/20,Lee,FL,-81.824685,26.579652,,,,,,,,,,,,,,,,,,,,,
717,NO.1756,3/12/20,Sarasota,FL,-82.322256,27.180512,,,,,,,,,,,,,,,,,,,,,
718,NO.1757,3/12/20,Volusia,FL,-81.162041,29.047508,,,,,,,,,,,,,,,,,,,,,
719,NO.1758,3/12/20,Duval,FL,-81.671966,30.331074,,,,,,,,,,,,,,,,,,,,,
720,NO.1759,3/12/20,Clay,FL,-81.857782,29.983055,,,,,,,,,,,,,,,,,,,,,
721,NO.1760,3/12/20,Cass,NE,-96.141361,40.909758,,,,,,,,,,,,,,,,,,,,,
722,NO.1761,3/12/20,DeKalb,GA,-84.226465,33.771537,,,,,,,,,,,,,,,,,,,,,
723,NO.1762-1763,3/12/20,Gordon,GA,-84.875879,34.503196,,,,,,,,,,,,,,,,,,,,,
724,NO.1764-1765,3/12/20,Fayette,GA,-84.494272,33.413909,,,,,,,,,,,,,,,,,,,,,
725,NO.1766-1770,3/12/20,Dallas,TX,-96.777794,32.766585,,,,,,,,,,,,,,,,,,,,,
726,NO.1771,3/12/20,Palm Beach,FL,-80.430026,26.624047,,,,,,,,,,,,,,,,,,,,,
727,NO.1772,3/12/20,Palm Beach,FL,-80.430026,26.624047,,,,,,,,,,,,,,,,,,,,,
728,NO.1773,3/12/20,Sarasota,FL,-82.322256,27.180512,,,,,,,,,,,,,,,,,,,,,
729,NO.1774,3/12/20,Broward,FL,-80.14357,26.12388,,,,,,,,,,,,,,,,,,,,,
730,NO.1775,3/12/20,Broward,FL,-80.14357,26.12388,,,,,,,,,,,,,,,,,,,,,
731,NO.1776,3/12/20,Broward,FL,-80.14357,26.12388,,,,,,,,,,,,,,,,,,,,,
732,NO.1777,3/12/20,Broward,FL,-80.14357,26.12388,,,,,,,,,,,,,,,,,,,,,
733,NO.1778,3/12/20,Floyd,GA,-85.214528,34.263242,,,,,,,,,,,,,,,,,,,,,
734,NO.1779,3/12/20,Fulton,GA,-84.46711,33.790241,,,,,,,,,,,,,,,,,,,,,
735,NO.1780,3/12/20,Coweta,GA,-84.763367,33.353603,,,,,,,,,,,,,,,,,,,,,
736,NO.1781-1786,3/12/20,Linn,OR,-122.534398,44.488741,,,,,,,,,,,,,,,,,,,,,
737,NO.1787-1788,3/12/20,Los Angeles,CA,-118.220938,34.342772,,,,,,,,,,,,,,,,,,,,,
738,NO.1789-1791,3/12/20,Santa Cruz,CA,-122.001609,37.056236,,,,,,,,,,,,,,,,,,,,,
739,NO.1792,3/12/20,Miami-Dade,FL,-80.567908,25.614182,,,,,,,,,,,,,,,,,,,,,
740,NO.1793,3/12/20,Bergen,NJ,-74.074442,40.959491,,,,,,,,,,,,,,,,,,,,,
741,NO.1794,3/12/20,Middlesex,NJ,-74.411108,40.439575,,,,,,,,,,,,,,,,,,,,,
742,NO.1795,3/13/20,El Paso,CO,-104.525514,38.832127,,,,,,,,,,,,,,,,,,,,,
743,NO.1796,3/13/20,Santa Clara,CA,-121.694797,37.23174,,,,,,,,,,,,,,,,,,,,,
744,NO.1797-1798,3/13/20,Travis,TX,-97.78219,30.334623,,,,,,,,,,,,,,,,,,,,,
745,NO.1799,3/13/20,Suffolk,NY,-72.85898,40.877328,,,,,,,,,,,,,,,,,,,,,
746,NO.1800-1801,3/13/20,St. Tammany,LA,-89.938545,30.446658,,,,,,,,,,,,,,,,,,,,,
747,NO.1802,3/13/20,Jefferson,LA,-90.1488652,29.8442458,,,,,,,,,,,,,,,,,,,,,
748,NO.1803,3/13/20,St. Bernard,LA,-89.56184,29.873672,,,,,,,,,,,,,,,,,,,,,
749,NO.1804,3/13/20,St. Charles,LA,-90.38244,29.90528,,,,,,,,,,,,,,,,,,,,,
750,NO.1805,3/13/20,Terrebonne,LA,-90.875462,29.430067,,,,,,,,,,,,,,,,,,,,,
751,NO.1806-1813,3/13/20,Orleans,LA,-78.231247,43.252101,,,,,,,,,,,,,,,,,,,,,
752,NO.1814,3/13/20,,ME,-69.590465,44.623738,,,,,,,,,,,,,,,,,,,,,
753,NO.1815,3/13/20,,ME,-69.590465,44.623738,,,,,,,,,,,,,,,,,,,,,
754,NO.1816,3/13/20,Montgomery,AL,-86.207703,32.220379,,,,,,,,,,,,,,,,,,,,,
755,NO.1817,3/13/20,Bexar,TX,-98.520008,29.448921,,,,,,,,,,,,,,,,,,,,,
756,NO.1818-1821,3/13/20,Montgomery,PA,-75.367364,40.210894,,,,,,,,,,,,,,,,,,,,,
757,NO.1822-1823,3/13/20,Delaware,PA,-75.398986,39.916725,,,,,,,,,,,,,,,,,,,,,
758,NO.11824-1826,3/13/20,Smith,TX,-95.269103,32.375056,,,,,,,,,,,,,,,,,,,,,
759,NO.1827,3/13/20,Douglas,NE,-96.155334,41.295352,,,,,,,,,,,,,,,,,,,,,
760,NO.1828,3/13/20,Douglas,NE,-96.155334,41.295352,,,,,,,,,,,,,,,,,,,,,
761,NO.1829,3/13/20,Sedgwick,KS,-97.460947,37.684761,,,,,,,,,,,,,,,,,,,,,
762,NO.1830,3/13/20,Charles,MD,-77.012867,38.474104,,,,,,,,,,,,,,,,,,,,,
763,NO.1831,3/13/20,Hudson,NJ,-74.07411,40.740342,,,,,,,,,,,,,,,,,,,,,
764,NO.1832-1833,3/13/20,Prince George  s,MD,-76.845871,38.828386,,,,,,,,,,,,,,,,,,,,,
765,NO.1834,3/13/20,Anne Arundel,MD,-76.603286,39.008897,,,,,,,,,,,,,,,,,,,,,
766,NO.1835,3/13/20,Baltimore,MD,-76.633639,39.458477,,,,,,,,,,,,,,,,,,,,,
767,NO.1836-1837,3/13/20,Belmont,OH,-80.988627,40.015768,,,,,,,,,,,,,,,,,,,,,
768,NO.1838,3/13/20,Delaware,PA,-75.398986,39.916725,,,,,,,,,,,,,,,,,,,,,
769,NO.1839,3/13/20,Monroe,PA,-75.339398,41.058116,,,,,,,,,,,,,,,,,,,,,
770,NO.1840-1841,3/13/20,Philadelphia,PA,-75.133921,40.007622,,,,,,,,,,,,,,,,,,,,,
771,NO.1842,3/13/20,McCook,SD,-97.368422,43.674306,,,,,,,,,,,,,,,,,,,,,
772,NO.1843,3/13/20,Forrest,MS,-89.257835,31.188839,,,,,,,,,,,,,,,,,,,,,
773,NO.1844,3/13/20,Forrest,MS,-89.257835,31.188839,,,,,,,,,,,,,,,,,,,,,
774,NO.1845-1848,3/13/20,Arapahoe,CO,-104.339204,39.649767,,,,,,,,,,,,,,,,,,,,,
775,NO.1849-1852,3/13/20,,MN,-93.685832,43.746852,,,,,,,,,,,,,,,,,,,,,
776,NO.1853-1855,3/13/20,Bernalillo,NM,-106.670313,35.051285,,,,,,,,,,,,,,,,,,,,,
777,NO.1856,3/13/20,Santa Fe,NM,-105.976244,35.506812,,,,,,,,,,,,,,,,,,,,,
778,NO.1857,3/13/20,Wright,MN,-93.963558,45.173442,,,,,,,,,,,,,,,,,,,,,
779,NO.1858-1866,3/13/20,,RI,-71.302789,41.502558,,,,,,,,,,,,,,,,,,,,,
780,NO.1867-1871,3/13/20,San Francisco,CA,-122.41844,37.7794,,,,,,,,,,,,,,,,,,,,,
781,NO.1872,3/13/20,Collin,TX,-96.572725,33.18804,,,,,,,,,,,,,,,,,,,,,
782,NO.1873-1880,3/13/20,Contra Costa,CA,-121.925935,37.917937,,,,,,,,,,,,,,,,,,,,,
783,NO.1881-1882,3/13/20,Summit,UT,-110.955846,40.868099,,,,,,,,,,,,,,,,,,,,,
784,NO.1883,3/13/20,Chester,PA,-75.748452,39.973204,,,,,,,,,,,,,,,,,,,,,
785,NO.1884-1942,3/13/20,New York,NY,-74.00714,40.71455,,,,,,,,,,,,,,,,,,,,,
786,NO.1943-1952,3/13/20,Westchester,NY,-73.756063,41.163198,,,,,,,,,,,,,,,,,,,,,
787,NO.1953-1959,3/13/20,Suffolk,NY,-72.85898,40.877328,,,,,,,,,,,,,,,,,,,,,
788,NO.1960-1961,3/13/20,Middlesex,NJ,-74.411108,40.439575,,,,,,,,,,,,,,,,,,,,,
789,NO.1962,3/13/20,Dane,WI,-89.418214,43.067322,,,,,,,,,,,,,,,,,,,,,
790,NO.1963,3/13/20,Fairfield,CT,-73.388791,41.273247,,,,,,,,,,,,,,,,,,,,,
791,NO.1964-1966,3/13/20,,AR,-92.2984282,34.7394925,,,,,,,,,,,,,,,,,,,,,
792,NO.1967-1970,3/13/20,Davidson,TN,-86.784757,36.169561,,,,,,,,,,,,,,,,,,,,,
793,NO.1971,3/13/20,Hamilton,TN,-85.166841,35.17932,,,,,,,,,,,,,,,,,,,,,
794,NO.1972-1975,3/13/20,Fond du Lac,WI,-88.492798,43.747318,,,,,,,,,,,,,,,,,,,,,
795,NO.1976,3/13/20,Jefferson,TN,-83.451794,36.057175,,,,,,,,,,,,,,,,,,,,,
796,NO.1977,3/13/20,Rutherford,TN,-86.416752,35.842743,,,,,,,,,,,,,,,,,,,,,
797,NO.1978,3/13/20,Williamson,TN,-86.89864,35.893827,,,,,,,,,,,,,,,,,,,,,
798,NO.1979-1991,3/13/20,Santa Clara,CA,-121.694797,37.23174,,,,,,,,,,,,,,,,,,,,,
799,NO.1992,3/13/20,Washtenaw,MI,-83.838776,42.253229,,,,,,,,,,,,,,,,,,,,,
800,NO.1993,3/13/20,Carroll,MD,-77.022466,39.562959,,,,,,,,,,,,,,,,,,,,,
801,NO.1994,3/13/20,Wayne,MI,-83.282201,42.28208,,,,,,,,,,,,,,,,,,,,,
802,NO.1995,3/13/20,,MI,-86.488314,46.106833,,,,,,,,,,,,,,,,,,,,,
803,NO.1996,3/13/20,Wayne,MI,-83.282201,42.28208,,,,,,,,,,,,,,,,,,,,,
804,NO.1997,3/13/20,Adams,CO,-104.336635,39.873759,,,,,,,,,,,,,,,,,,,,,
805,NO.1998-1999,3/13/20,,CO,-87.66989,41.96885,,,,,,,,,,,,,,,,,,,,,
806,NO.2000-2002,3/13/20,Monmouth,NJ,-74.221946,40.260041,,,,,,,,,,,,,,,,,,,,,
807,NO.2003-2005,3/13/20,Denver,CO,-104.9847,39.73915,,,,,,,,,,,,,,,,,,,,,
808,NO.2006-2010,3/13/20,Eagle,CO,-106.695148,39.62785,,,,,,,,,,,,,,,,,,,,,
809,NO.2011-2012,3/13/20,Essex,NJ,-74.247601,40.787793,,,,,,,,,,,,,,,,,,,,,
810,NO.2013-2015,3/13/20,Los Angeles,CA,-118.220938,34.342772,,,,,,,,,,,,,,,,,,,,,
811,NO.2016,3/13/20,El Paso,CO,-104.525514,38.832127,,,,,,,,,,,,,,,,,,,,,
812,NO.2017,3/13/20,Ocean,NJ,-74.296965,39.909274,,,,,,,,,,,,,,,,,,,,,
813,NO.2018-2019,3/13/20,Jefferson,CO,-105.250402,39.586432,,,,,,,,,,,,,,,,,,,,,
814,NO.2020,3/13/20,Mercer,NJ,-74.701574,40.283319,,,,,,,,,,,,,,,,,,,,,
815,NO.2021-2022,3/13/20,Weld,CO,-104.392435,40.554773,,,,,,,,,,,,,,,,,,,,,
816,NO.2023,3/13/20,Burlington,NJ,-74.667901,39.877518,,,,,,,,,,,,,,,,,,,,,
817,NO.2024-2025,3/13/20,Morris,NJ,-74.544274,40.862019,,,,,,,,,,,,,,,,,,,,,
818,NO.2026-2027,3/13/20,Bergen,NJ,-74.074442,40.959491,,,,,,,,,,,,,,,,,,,,,
819,NO.2028,3/13/20,Pueblo,CO,-104.512862,38.173438,,,,,,,,,,,,,,,,,,,,,
820,NO.2029-2030,3/13/20,Hudson,NJ,-74.07411,40.740342,,,,,,,,,,,,,,,,,,,,,
821,NO.2031,3/13/20,Summit,CO,-106.116361,39.634169,,,,,,,,,,,,,,,,,,,,,
822,NO.2032,3/13/20,Passaic,NJ,-74.301057,41.034347,,,,,,,,,,,,,,,,,,,,,
823,NO.2033,3/13/20,Clark,NV,-115.024691,36.2171,,,,,,,,,,,,,,,,,,,,,
824,NO.2034,3/13/20,Clark,NV,-115.024691,36.2171,,,,,,,,,,,,,,,,,,,,,
825,NO.2035,3/13/20,Clark,NV,-115.024691,36.2171,,,,,,,,,,,,,,,,,,,,,
826,NO.2036,3/13/20,Clark,NV,-115.024691,36.2171,,,,,,,,,,,,,,,,,,,,,
827,NO.2037,3/13/20,Clark,NV,-115.024691,36.2171,,,,,,,,,,,,,,,,,,,,,
828,NO.2038,3/13/20,Clark,NV,-115.024691,36.2171,,,,,,,,,,,,,,,,,,,,,
829,NO.2039,3/13/20,Routt,CO,-106.991219,40.484998,,,,,,,,,,,,,,,,,,,,,
830,NO.2040-2044,3/13/20,San Joaquin,CA,-121.271311,37.934796,,,,,,,,,,,,,,,,,,,,,
831,NO.2045,3/13/20,Leflore,MS,-90.301065,33.550528,,,,,,,,,,,,,,,,,,,,,
832,NO.2046,3/13/20,Tarrant,TX,-97.291196,32.771544,,,,,,,,,,,,,,,,,,,,,
833,NO.2047-2048,3/13/20,Clark,WA,-122.481279,45.781873,,,,,,,,,,,,,,,,,,,,,
834,NO.2049,3/13/20,Litchfield,CT,-73.245318,41.792628,,,,,,,,,,,,,,,,,,,,,
835,NO.2050,3/13/20,Fairfield,CT,-73.388791,41.273247,,,,,,,,,,,,,,,,,,,,,
836,NO.2051-2053,3/13/20,Fort Bend,TX,-95.770651,29.527453,,,,,,,,,,,,,,,,,,,,,
837,NO.2054-2056,3/13/20,Orleans,LA,-78.231247,43.252101,,,,,,,,,,,,,,,,,,,,,
838,NO.2057,3/13/20,Bucks,PA,-75.106794,40.33694,,,,,,,,,,,,,,,,,,,,,
839,NO.2058-2059,3/13/20,Delaware,PA,-75.398986,39.916725,,,,,,,,,,,,,,,,,,,,,
840,NO.2060,3/13/20,Montgomery,PA,-75.367364,40.210894,,,,,,,,,,,,,,,,,,,,,
841,NO.2061,3/13/20,Washington,PA,-80.248387,40.189531,,,,,,,,,,,,,,,,,,,,,
842,NO.2062,3/13/20,Loudoun,VA,-77.635648,39.090699,,,,,,,,,,,,,,,,,,,,,
843,NO.2063-2065,3/13/20,Cumberland,PA,-77.265381,40.163677,,,,,,,,,,,,,,,,,,,,,
844,NO.2066,3/13/20,Columbia,WA,-117.907863,46.297577,,,,,,,,,,,,,,,,,,,,,
845,NO.2067-20124,3/13/20,King,WA,-121.804332,47.490118,,,,,,,,,,,,,,,,,,,,,
846,NO.2125,3/13/20,Kitsap,WA,-122.608532,47.474962,,,,,,,,,,,,,,,,,,,,,
847,NO.2126-2127,3/13/20,Milwaukee,WI,-87.966697,43.007168,,,,,,,,,,,,,,,,,,,,,
848,NO.2128-2129,3/13/20,Pierce,WA,-122.101441,47.022708,,,,,,,,,,,,,,,,,,,,,
849,NO.2130,3/13/20,Racine,WI,-88.061047,42.747472,,,,,,,,,,,,,,,,,,,,,
850,NO.2131-2133,3/13/20,Sheboygan,WI,-87.945362,43.721181,,,,,,,,,,,,,,,,,,,,,
851,NO.2124,3/13/20,Skagit,WA,-121.72808,48.47933,,,,,,,,,,,,,,,,,,,,,
852,NO.2125-2149,3/13/20,Snohomish,WA,-121.6963,48.047349,,,,,,,,,,,,,,,,,,,,,
853,NO.2150-2151,3/13/20,Yakima,WA,-120.739453,46.456707,,,,,,,,,,,,,,,,,,,,,
854,NO.2152,3/13/20,Kershaw,SC,-80.590296,34.338922,,,,,,,,,,,,,,,,,,,,,
855,NO.2153,3/13/20,Stark,OH,-81.365656,40.81391,,,,,,,,,,,,,,,,,,,,,
856,NO.2154,3/13/20,Bulter,OH,-84.576168,39.438638,,,,,,,,,,,,,,,,,,,,,
857,NO.2155-2157,3/13/20,Orange,CA,-117.760595,33.703222,,,,,,,,,,,,,,,,,,,,,
858,NO.2158-2176,3/13/20,Unassigned,WA,-120.556263,47.411252,,,,,,,,,,,,,,,,,,,,,
859,NO.2177,3/13/20,Summit,OH,-81.532188,41.125916,,,,,,,,,,,,,,,,,,,,,
860,NO.2178-2190,3/13/20,Cook,IL,-87.816823,41.840149,,,,,,,,,,,,,,,,,,,,,
861,NO.2191,3/13/20,Lake,IL,-88.003535,42.323276,,,,,,,,,,,,,,,,,,,,,
862,NO.2192-2193,3/13/20,Dutchess,NY,-73.742817,41.764775,,,,,,,,,,,,,,,,,,,,,
863,NO.2194-2203,3/13/20,Nassau,NY,-73.588996,40.741652,,,,,,,,,,,,,,,,,,,,,
864,NO.2204-2205,3/13/20,Orange,NY,-74.305596,41.402068,,,,,,,,,,,,,,,,,,,,,
865,NO.2206-2207,3/13/20,Rockland,NY,-74.02401,41.152374,,,,,,,,,,,,,,,,,,,,,
866,NO.2208,3/13/20,Ulster,NY,-74.258374,41.888112,,,,,,,,,,,,,,,,,,,,,
867,NO.2209,3/13/20,Schenectady,NY,-74.058598,42.818133,,,,,,,,,,,,,,,,,,,,,
868,NO.2210,3/13/20,Ada,ID,-116.241134,43.451057,,,,,,,,,,,,,,,,,,,,,
869,NO.2211-2212,3/13/20,,KY,-83.340351,36.812916,,,,,,,,,,,,,,,,,,,,,
870,NO.2213,3/13/20,Broome,NY,-75.819646,42.160218,,,,,,,,,,,,,,,,,,,,,
871,NO.2214,3/13/20,Montgomery,KY,-83.91303,38.033472,,,,,,,,,,,,,,,,,,,,,
872,NO.2215-2225,3/13/20,Middlesex,MA,-71.391791,42.485594,,,,,,,,,,,,,,,,,,,,,
873,NO.2226,3/13/20,Harrison,IA,-95.815524,41.683014,,,,,,,,,,,,,,,,,,,,,
874,NO.2227,3/13/20,Jefferson,AL,-86.896489,33.554274,,,,,,,,,,,,,,,,,,,,,
875,NO.2228,3/13/20,Elmore,AL,-86.15417,32.593185,,,,,,,,,,,,,,,,,,,,,
876,NO.2229-2232,3/13/20,Suffolk,MA,-71.075374,42.331892,,,,,,,,,,,,,,,,,,,,,
877,NO.2233,3/13/20,Salt Lake,UT,-111.913406,40.66048,,,,,,,,,,,,,,,,,,,,,
878,NO.2234,3/13/20,Wayne,NC,-78.00416,35.363762,,,,,,,,,,,,,,,,,,,,,
879,NO.2235,3/13/20,Summit,UT,-110.955846,40.868099,,,,,,,,,,,,,,,,,,,,,
880,NO.2236,3/13/20,San Diego,CA,-116.75641,33.033899,,,,,,,,,,,,,,,,,,,,,
881,NO.2237,3/13/20,Tarrant,TX,-97.291196,32.771544,,,,,,,,,,,,,,,,,,,,,
882,NO.2238,3/13/20,St. Louis,MO,-90.445096,38.639622,,,,,,,,,,,,,,,,,,,,,
883,NO.2239,3/13/20,,MO,-91.469704,36.579244,,,,,,,,,,,,,,,,,,,,,
884,NO.2240-2241,3/13/20,Prince William,VA,-77.480023,38.702447,,,,,,,,,,,,,,,,,,,,,
885,NO.2242,3/13/20,Douglas,NE,-96.155334,41.295352,,,,,,,,,,,,,,,,,,,,,
886,NO.2243,3/13/20,Pearl River,MS,-89.589757,30.768543,,,,,,,,,,,,,,,,,,,,,
887,NO.2244-2248,3/13/20,James City,VA,-76.773353,37.313274,,,,,,,,,,,,,,,,,,,,,
888,NO.2249,3/13/20,Fairfax,VA,-77.277841,38.837998,,,,,,,,,,,,,,,,,,,,,
889,NO.2250-2252,3/13/20,Arlington,VA,-77.100957,38.878532,,,,,,,,,,,,,,,,,,,,,
890,NO.2253-2254,3/13/20,Denver,CO,-104.9847,39.73915,,,,,,,,,,,,,,,,,,,,,
891,NO.2255,3/13/20,Clark,NV,-115.024691,36.2171,,,,,,,,,,,,,,,,,,,,,
892,NO.2256,3/13/20,Clark,NV,-115.024691,36.2171,,,,,,,,,,,,,,,,,,,,,
893,NO.2257,3/13/20,Douglas,CO,-104.929571,39.329666,,,,,,,,,,,,,,,,,,,,,
894,NO.2258,3/13/20,Gunnison,CO,-107.031584,38.666753,,,,,,,,,,,,,,,,,,,,,
895,NO.2259,3/13/20,Jefferson,CO,-105.250402,39.586432,,,,,,,,,,,,,,,,,,,,,
896,NO.2260,3/13/20,Washoe,NV,-119.665991,40.68696,,,,,,,,,,,,,,,,,,,,,
897,NO.2261,3/13/20,Prince George  s,MD,-76.845871,38.828386,,,,,,,,,,,,,,,,,,,,,
898,NO.2262,3/13/20,Dallas,TX,-96.777794,32.766585,,,,,,,,,,,,,,,,,,,,,
899,NO.2263,3/13/20,Los Angeles,CA,-118.220938,34.342772,,,,,,,,,,,,,,,,,,,,,
900,NO.2264,3/13/20,Yolo,CA,-121.90171,38.686848,,,,,,,,,,,,,,,,,,,,,
901,NO.2265,3/13/20,Travis,TX,-97.78219,30.334623,,,,,,,,,,,,,,,,,,,,,
902,NO.2266-2269,3/13/20,Orange,CA,-117.760595,33.703222,,,,,,,,,,,,,,,,,,,,,
903,NO.2270,3/13/20,Pima,AZ,-111.789767,32.097271,,,,,,,,,,,,,,,,,,,,,
904,NO.2271,3/13/20,Wake,NC,-78.650398,35.790108,,,,,,,,,,,,,,,,,,,,,
905,NO.2272,3/13/20,Harnett,NC,-78.869311,35.368602,,,,,,,,,,,,,,,,,,,,,
906,NO.2273,3/13/20,Camden,NJ,-74.959998,39.803719,,,,,,,,,,,,,,,,,,,,,
907,NO.2274-2277,3/13/20,Alameda,CA,-121.887644,37.646501,,,,,,,,,,,,,,,,,,,,,
908,NO.2278-2281,3/13/20,Riverside,CA,-115.993923,33.746112,,,,,,,,,,,,,,,,,,,,,
909,NO.2282,3/13/20,Gallatin,MT,-111.170411,45.540452,,,,,,,,,,,,,,,,,,,,,
910,NO.2283,3/13/20,Yellowstone,MT,-108.274348,45.937116,,,,,,,,,,,,,,,,,,,,,
911,NO.2284,3/13/20,Silver Bow,MT,-112.656817,45.902398,,,,,,,,,,,,,,,,,,,,,
912,NO.2285,3/13/20,Lewis and Clark,MT,-112.394145,47.124815,,,,,,,,,,,,,,,,,,,,,
913,NO.2286,3/13/20,Harris,TX,-95.393111,29.857628,,,,,,,,,,,,,,,,,,,,,
914,NO.2287,3/13/20,Tuscaloosa,AL,-87.525063,33.289569,,,,,,,,,,,,,,,,,,,,,
915,NO.2288,3/13/20,Limestone,AL,-86.977285,34.814892,,,,,,,,,,,,,,,,,,,,,
916,NO.2289,3/13/20,,AL,-86.55355,33.552958,,,,,,,,,,,,,,,,,,,,,
917,NO.2290,3/13/20,Bay,MI,-83.992037,43.707329,,,,,,,,,,,,,,,,,,,,,
918,NO.2291,3/13/20,Charlevoix,MI,-85.124002,45.303318,,,,,,,,,,,,,,,,,,,,,
919,NO.2292,3/13/20,Wayne,MI,-83.282201,42.28208,,,,,,,,,,,,,,,,,,,,,
920,NO.2293,3/13/20,Macomb,MI,-82.932399,42.695834,,,,,,,,,,,,,,,,,,,,,
921,NO.2294-2295,3/13/20,Oakland,MI,-83.3858,42.660374,,,,,,,,,,,,,,,,,,,,,
922,NO.2296,3/13/20,Oakland,MI,-83.3858,42.660374,,,,,,,,,,,,,,,,,,,,,
923,NO.2297-2298,3/13/20,Wayne,MI,-83.282201,42.28208,,,,,,,,,,,,,,,,,,,,,
924,NO.2299,3/13/20,Orange,FL,-81.311713,28.510131,,,,,,,,,,,,,,,,,,,,,
925,NO.2300-2301,3/13/20,Deschutes,OR,-121.228128,43.914969,,,,,,,,,,,,,,,,,,,,,
926,NO.2302,3/13/20,El Paso,TX,-106.234789,31.76871,,,,,,,,,,,,,,,,,,,,,
927,NO.2303,3/13/20,Hartford,CT,-72.732878,41.806461,,,,,,,,,,,,,,,,,,,,,
928,NO.2304,3/13/20,Whatcom,WA,-121.717418,48.825597,,,,,,,,,,,,,,,,,,,,,
929,NO.2305-2307,3/13/20,Puerto Rico,PR,-66.468953,18.222606,,,,,,,,,,,,,,,,,,,,,
930,NO.2308,3/13/20,Monroe,NY,-77.696749,43.146043,,,,,,,,,,,,,,,,,,,,,
931,NO.2309,3/13/20,Ventura,CA,-119.083619,34.45675,,,,,,,,,,,,,,,,,,,,,
932,NO.2310,3/13/20,San Benito,CA,-121.074927,36.605599,,,,,,,,,,,,,,,,,,,,,
933,NO.2311,3/13/20,Ventura,CA,-119.083619,34.45675,,,,,,,,,,,,,,,,,,,,,
934,NO.2312,3/13/20,Copiah,MS,-90.44886,31.86932,,,,,,,,,,,,,,,,,,,,,
935,NO.2313,3/13/20,Oklahoma,OK,-97.407217,35.551526,,,,,,,,,,,,,,,,,,,,,
936,NO.2314-2315,3/13/20,Ventura,CA,-119.083619,34.45675,,,,,,,,,,,,,,,,,,,,,
937,NO.2316,3/13/20,Tulare,CA,-118.800326,36.22019,,,,,,,,,,,,,,,,,,,,,
938,NO.2317,3/13/20,Litchfield,CT,-73.245318,41.792628,,,,,,,,,,,,,,,,,,,,,
939,NO.2318,3/13/20,Fairfield,CT,-73.388791,41.273247,,,,,,,,,,,,,,,,,,,,,
940,NO.2319,3/13/20,Fairfield,CT,-73.388791,41.273247,,,,,,,,,,,,,,,,,,,,,
941,NO.2320,3/13/20,Fremont,WY,-108.630497,43.040519,,,,,,,,,,,,,,,,,,,,,
942,NO.2321,3/13/20,Bell,TX,-97.478074,31.037659,,,,,,,,,,,,,,,,,,,,,
943,NO.2322,3/13/20,Kauai County,HI,-159.727596,22.082502,,,,,,,,,,,,,,,,,,,,,
944,NO.2323,3/13/20,Rockingham,NH,-71.128225,42.986738,,,,,,,,,,,,,,,,,,,,,
945,NO.2324,3/13/20,Graham,AZ,-109.887499,32.932678,,,,,,,,,,,,,,,,,,,,,
946,NO.2325,3/13/20,Campbell,TN,-84.149361,36.403456,,,,,,,,,,,,,,,,,,,,,
947,NO.2326-2327,3/13/20,Albany,NY,-73.973605,42.600135,,,,,,,,,,,,,,,,,,,,,
948,NO.2328-2330,3/13/20,Cuyahoga,OH,-81.658582,41.424415,,,,,,,,,,,,,,,,,,,,,
949,NO.2331,3/13/20,,USVI,-64.819087,17.728114,,,,,,,,,,,,,,,,,,,,,
950,NO.2332,3/14/20,New York,NY,-74.00714,40.71455,,,,,,,,,,,,,,,,,,,,,
951,NO.2333,3/14/20,Miami-Dade,FL,-80.567908,25.614182,,,,,,,,,,,,,,,,,,,,,
952,NO.2334,3/14/20,Orange,FL,-81.311713,28.510131,,,,,,,,,,,,,,,,,,,,,
953,NO.2335,3/14/20,Osceola,FL,-81.145197,28.068126,,,,,,,,,,,,,,,,,,,,,
954,NO.2336,3/14/20,Miami-Dade,FL,-80.567908,25.614182,,,,,,,,,,,,,,,,,,,,,
955,NO.2337,3/14/20,Manatee,FL,-82.301958,27.471863,,,,,,,,,,,,,,,,,,,,,
956,NO.2338,3/14/20,Manatee,FL,-82.301958,27.471863,,,,,,,,,,,,,,,,,,,,,
957,NO.2339,3/14/20,Volusia,FL,-81.162041,29.047508,,,,,,,,,,,,,,,,,,,,,
958,NO.2340,3/14/20,Alachua,FL,-82.357731,29.674819,,,,,,,,,,,,,,,,,,,,,
959,NO.2341,3/14/20,Palm Beach,FL,-80.430026,26.624047,,,,,,,,,,,,,,,,,,,,,
960,NO.2342,3/14/20,Palm Beach,FL,-80.430026,26.624047,,,,,,,,,,,,,,,,,,,,,
961,NO.2343,3/14/20,Miami-Dade,FL,-80.567908,25.614182,,,,,,,,,,,,,,,,,,,,,
962,NO.2344,3/14/20,Miami-Dade,FL,-80.567908,25.614182,,,,,,,,,,,,,,,,,,,,,
963,NO.2345,3/14/20,Broward,FL,-80.14357,26.12388,,,,,,,,,,,,,,,,,,,,,
964,NO.2346,3/14/20,Miami-Dade,FL,-80.567908,25.614182,,,,,,,,,,,,,,,,,,,,,
965,NO.2347,3/14/20,Broward,FL,-80.14357,26.12388,,,,,,,,,,,,,,,,,,,,,
966,NO.2348,3/14/20,Broward,FL,-80.14357,26.12388,,,,,,,,,,,,,,,,,,,,,
967,NO.2349,3/14/20,Broward,FL,-80.14357,26.12388,,,,,,,,,,,,,,,,,,,,,
968,NO.2350,3/14/20,Broward,FL,-80.14357,26.12388,,,,,,,,,,,,,,,,,,,,,
969,NO.2351,3/14/20,Broward,FL,-80.14357,26.12388,,,,,,,,,,,,,,,,,,,,,
970,NO.2352,3/14/20,Broward,FL,-80.14357,26.12388,,,,,,,,,,,,,,,,,,,,,
971,NO.2353,3/14/20,Broward,FL,-80.14357,26.12388,,,,,,,,,,,,,,,,,,,,,
972,NO.2354,3/14/20,Broward,FL,-80.14357,26.12388,,,,,,,,,,,,,,,,,,,,,
973,NO.2355,3/14/20,Miami-Dade,FL,-80.567908,25.614182,,,,,,,,,,,,,,,,,,,,,
974,NO.2356,3/14/20,Palm Beach,FL,-80.430026,26.624047,,,,,,,,,,,,,,,,,,,,,
975,NO.2357,3/14/20,Brunswick,NC,-78.237497,34.070594,,,,,,,,,,,,,,,,,,,,,
976,NO.2358,3/14/20,Chesterfield,VA,-77.586892,37.378589,,,,,,,,,,,,,,,,,,,,,
977,NO.2359-2361,3/14/20,Davidson,TN,-86.784757,36.169561,,,,,,,,,,,,,,,,,,,,,
978,NO.2362,3/14/20,Marion,IN,-86.138415,39.781744,,,,,,,,,,,,,,,,,,,,,
979,NO.2363,3/14/20,Wells,IN,-85.221216,40.729195,,,,,,,,,,,,,,,,,,,,,
980,NO.2364,3/14/20,LaPorte,IN,-86.739978,41.545952,,,,,,,,,,,,,,,,,,,,,
981,NO.2365-2373,3/14/20,Unassigned,MD,-76.15873,38.818199,,,,,,,,,,,,,,,,,,,,,
982,NO.2374-2473,3/14/20,Unassigned,NY,-73.968258,40.776842,,,,,,,,,,,,,,,,,,,,,
983,NO.2474-2495,3/14/20,,GA,-83.006037,30.907355,,,,,,,,,,,,,,,,,,,,,
984,NO.2496-2506,3/14/20,Orleans,LA,-78.231247,43.252101,,,,,,,,,,,,,,,,,,,,,
985,NO.2507-2509,3/14/20,,NC,-76.247543,36.342991,,,,,,,,,,,,,,,,,,,,,
986,NO.2510,3/14/20,Collin,TX,-96.572725,33.18804,,,,,,,,,,,,,,,,,,,,,
987,NO.2511,3/14/20,Franklin,OH,-83.009331,39.969471,,,,,,,,,,,,,,,,,,,,,
988,NO.2512-2514,3/14/20,San Mateo,CA,-122.32863,37.422133,,,,,,,,,,,,,,,,,,,,,
989,NO.2515,3/14/20,New Castle,DE,-75.639037,39.578044,,,,,,,,,,,,,,,,,,,,,
990,NO.2516,3/14/20,New Castle,DE,-75.639037,39.578044,,,,,,,,,,,,,,,,,,,,,
991,NO.2517,3/14/20,Chester,PA,-75.748452,39.973204,,,,,,,,,,,,,,,,,,,,,
992,NO.2518-2519,3/14/20,Montgomery,PA,-75.367364,40.210894,,,,,,,,,,,,,,,,,,,,,
993,NO.2520,3/14/20,Maricopa,AZ,-112.491279,33.348825,,,,,,,,,,,,,,,,,,,,,
994,NO.2521,3/14/20,Philadelphia,PA,-75.133921,40.007622,,,,,,,,,,,,,,,,,,,,,
995,NO.2522,3/14/20,Coles,IL,-88.221755,39.520286,,,,,,,,,,,,,,,,,,,,,
996,NO.2523,3/14/20,Tompkins,NY,-76.470644,42.449335,,,,,,,,,,,,,,,,,,,,,
997,NO.2524,3/14/20,Bossier,LA,-93.605311,32.678862,,,,,,,,,,,,,,,,,,,,,
998,NO.2525,3/14/20,Jefferson,LA,-90.1488652,29.8442458,,,,,,,,,,,,,,,,,,,,,
999,NO.2526,3/14/20,St. John the Baptist,LA,-90.545413,30.078665,,,,,,,,,,,,,,,,,,,,,
1000,NO.2527-2528,3/14/20,Terrebonne,LA,-90.875462,29.430067,,,,,,,,,,,,,,,,,,,,,
1001,NO.2529,3/14/20,,LA,-91.421554,32.820291,,,,,,,,,,,,,,,,,,,,,
1002,NO.2530,3/14/20,Mesa,CO,-108.466494,39.018166,,,,,,,,,,,,,,,,,,,,,
1003,NO.2531,3/14/20,Craven,NC,-77.08247,35.117287,,,,,,,,,,,,,,,,,,,,,
1004,NO.2532,3/14/20,James City,VA,-76.773353,37.313274,,,,,,,,,,,,,,,,,,,,,
1006,NO.2534,3/14/20,King,WA,-121.804332,47.490118,,,,,,,,,,,,,,,,,,,,,
1007,NO.2535,3/14/20,Monmouth,NJ,-74.221946,40.260041,,,,,,,,,,,,,,,,,,,,,
1009,NO.2537-2539,3/14/20,Bartow,GA,-84.840729,34.237644,,,,,,,,,,,,,,,,,,,,,
1011,NO.2541-2544,3/14/20,Cherokee,GA,-84.476244,34.24399,,,,,,,,,,,,,,,,,,,,,
1015,NO.2554-2556,3/14/20,DeKalb,GA,-84.226465,33.771537,,,,,,,,,,,,,,,,,,,,,
1021,NO.2567-2573,3/14/20,Jefferson,LA,-90.1488652,29.8442458,,,,,,,,,,,,,,,,,,,,,
1025,NO.2599,3/14/20,Windsor,VT,-72.586093,43.580051,,,,,,,,,,,,,,,,,,,,,
1026,NO.2600-2613,3/14/20,Westchester,NY,-73.756063,41.163198,,,,,,,,,,,,,,,,,,,,,
1028,NO.2615,3/14/20,Windsor,VT,-72.586093,43.580051,,,,,,,,,,,,,,,,,,,,,
1029,NO.2616-2618,3/14/20,Orange,NY,-74.305596,41.402068,,,,,,,,,,,,,,,,,,,,,
1031,NO.2620-2622,3/14/20,Spokane,WA,-117.403979,47.620625,,,,,,,,,,,,,,,,,,,,,
1032,NO.2623-2627,3/14/20,Suffolk,NY,-72.85898,40.877328,,,,,,,,,,,,,,,,,,,,,
1034,NO.2633-2642,3/14/20,Bergen,NJ,-74.074442,40.959491,,,,,,,,,,,,,,,,,,,,,
1035,NO.2643-2646,3/14/20,Middlesex,NJ,-74.411108,40.439575,,,,,,,,,,,,,,,,,,,,,
1036,NO.2647-2650,3/14/20,Essex,NJ,-74.247601,40.787793,,,,,,,,,,,,,,,,,,,,,
1037,NO.2651,3/14/20,Hudson,NJ,-74.07411,40.740342,,,,,,,,,,,,,,,,,,,,,
1038,NO.2652,3/14/20,Washoe,NV,-119.665991,40.68696,,,,,,,,,,,,,,,,,,,,,
1039,NO.2653-2655,3/14/20,Jefferson,AR,-91.931522,34.268789,,,,,,,,,,,,,,,,,,,,,
1040,NO.2656-2658,3/14/20,Adams,CO,-104.336635,39.873759,,,,,,,,,,,,,,,,,,,,,
1041,NO.2659-2661,3/14/20,Arapahoe,CO,-104.339204,39.649767,,,,,,,,,,,,,,,,,,,,,
1042,NO.2662-2667,3/14/20,Denver,CO,-104.9847,39.73915,,,,,,,,,,,,,,,,,,,,,
1043,NO.2668-2691,3/14/20,Eagle,CO,-106.695148,39.62785,,,,,,,,,,,,,,,,,,,,,
1044,NO.2692,3/14/20,El Paso,CO,-104.525514,38.832127,,,,,,,,,,,,,,,,,,,,,
1045,NO.2693,3/14/20,Barnstable,MA,-70.298304,41.726182,,,,,,,,,,,,,,,,,,,,,
1046,NO.2694-2695,3/14/20,Gunnison,CO,-107.031584,38.666753,,,,,,,,,,,,,,,,,,,,,
1047,NO.2696-2697,3/14/20,Jefferson,CO,-105.250402,39.586432,,,,,,,,,,,,,,,,,,,,,
1048,NO.2698-2756,3/14/20,New York,NY,-74.00714,40.71455,,,,,,,,,,,,,,,,,,,,,
1050,NO.2758,3/14/20,Albany,NY,-73.973605,42.600135,,,,,,,,,,,,,,,,,,,,,
1051,NO.2759,3/14/20,Dakota,MN,-93.066678,44.670981,,,,,,,,,,,,,,,,,,,,,
1052,NO.2760-2761,3/14/20,Hennepin,MN,-93.474932,45.005758,,,,,,,,,,,,,,,,,,,,,
1053,NO.2762,3/14/20,Weld,CO,-104.392435,40.554773,,,,,,,,,,,,,,,,,,,,,
1054,NO.2763,3/14/20,Davidson,TN,-86.784757,36.169561,,,,,,,,,,,,,,,,,,,,,
1056,NO.2765,3/14/20,Hennepin,MN,-93.474932,45.005758,,,,,,,,,,,,,,,,,,,,,
1057,NO.2766,3/14/20,Renville,MN,-94.947174,44.726744,,,,,,,,,,,,,,,,,,,,,
1058,NO.2767,3/14/20,Williamson,TN,-86.89864,35.893827,,,,,,,,,,,,,,,,,,,,,
1060,NO.2769-2771,3/14/20,Butler,OH,-84.576168,39.438638,,,,,,,,,,,,,,,,,,,,,
1065,NO.2780-2791,3/14/20,Sacramento,CA,-121.343895,38.449858,,,,,,,,,,,,,,,,,,,,,
1070,NO.2805,3/14/20,Cumberland,IL,-88.240168,39.273328,,,,,,,,,,,,,,,,,,,,,
1071,NO.2806,3/14/20,St. Clair,IL,-89.9275,38.469965,,,,,,,,,,,,,,,,,,,,,
1072,NO.2807,3/14/20,St. Clair,IL,-89.9275,38.469965,,,,,,,,,,,,,,,,,,,,,
1073,NO.2808,3/14/20,Lake,IL,-88.003535,42.323276,,,,,,,,,,,,,,,,,,,,,
1076,NO.2812,3/14/20,Dane,WI,-89.418214,43.067322,,,,,,,,,,,,,,,,,,,,,
1077,NO.2813-2816,3/14/20,Milwaukee,WI,-87.966697,43.007168,,,,,,,,,,,,,,,,,,,,,
1079,NO.2820-2821,3/14/20,Waukesha,WI,-88.304567,43.018276,,,,,,,,,,,,,,,,,,,,,
1082,NO.2828-2831,3/14/20,Norfolk,MA,-71.211596,42.160531,,,,,,,,,,,,,,,,,,,,,
1083,NO.2832,3/14/20,Suffolk,MA,-71.075374,42.331892,,,,,,,,,,,,,,,,,,,,,
1084,NO.2833,3/14/20,Kane,IL,-88.428639,41.938876,,,,,,,,,,,,,,,,,,,,,
1086,NO.2835,3/14/20,Franklin,KS,-95.285941,38.564517,,,,,,,,,,,,,,,,,,,,,
1087,NO.2836-2839,3/14/20,Fairfax,VA,-77.277841,38.837998,,,,,,,,,,,,,,,,,,,,,
1088,NO.2840-2841,3/14/20,Arlington,VA,-77.100957,38.878532,,,,,,,,,,,,,,,,,,,,,
1093,NO.2849-2850,3/14/20,Kershaw,SC,-80.590296,34.338922,,,,,,,,,,,,,,,,,,,,,
1094,NO.2851,3/14/20,Blaine,ID,-113.979806,43.412335,,,,,,,,,,,,,,,,,,,,,
1096,NO.2853,3/14/20,Nelson,KY,-85.465972,37.805076,,,,,,,,,,,,,,,,,,,,,
1097,NO.2854,3/14/20,Jefferson,KY,-85.654995,38.18589,,,,,,,,,,,,,,,,,,,,,
1098,NO.2855,3/14/20,Rockland,NY,-74.02401,41.152374,,,,,,,,,,,,,,,,,,,,,
1099,NO.2856,3/14/20,New Haven,CT,-72.932415,41.410839,,,,,,,,,,,,,,,,,,,,,
1100,NO.2857-2863,3/14/20,Fairfield,CT,-73.388791,41.273247,,,,,,,,,,,,,,,,,,,,,
1102,NO.2874-2875,3/14/20,New Haven,CT,-72.932415,41.410839,,,,,,,,,,,,,,,,,,,,,
1103,NO.2876,3/14/20,Grant,WA,-119.452599,47.198858,,,,,,,,,,,,,,,,,,,,,
1104,NO.2877-2935,3/14/20,King,WA,-121.804332,47.490118,,,,,,,,,,,,,,,,,,,,,
1105,NO.2936-2942,3/14/20,Pierce,WA,-122.101441,47.022708,,,,,,,,,,,,,,,,,,,,,
1107,NO.2949,3/14/20,Skagit,WA,-121.72808,48.47933,,,,,,,,,,,,,,,,,,,,,
1108,NO.2950-2970,3/14/20,Snohomish,WA,-121.6963,48.047349,,,,,,,,,,,,,,,,,,,,,
1109,NO.2971-2972,3/14/20,Thurston,WA,-122.829869,46.919806,,,,,,,,,,,,,,,,,,,,,
1110,NO.2973,3/14/20,Sandoval,NM,-106.866613,35.688789,,,,,,,,,,,,,,,,,,,,,
1114,NO.2977,3/14/20,New Haven,CT,-72.932415,41.410839,,,,,,,,,,,,,,,,,,,,,
1115,NO.2978-2981,3/14/20,Contra Costa,CA,-121.925935,37.917937,,,,,,,,,,,,,,,,,,,,,
1116,NO.2982-2994,3/14/20,Los Angeles,CA,-118.220938,34.342772,,,,,,,,,,,,,,,,,,,,,
1117,NO.2995,3/14/20,Dutchess,NY,-73.742817,41.764775,,,,,,,,,,,,,,,,,,,,,
1118,NO.2996,3/14/20,Orange,CA,-117.760595,33.703222,,,,,,,,,,,,,,,,,,,,,
1119,NO.2997,3/14/20,Mecklenburg,NC,-80.830806,35.241478,,,,,,,,,,,,,,,,,,,,,
1121,NO.2999,3/14/20,Linn,OR,-122.534398,44.488741,,,,,,,,,,,,,,,,,,,,,
1122,NO.3000-3001,3/14/20,Albany,NY,-73.973605,42.600135,,,,,,,,,,,,,,,,,,,,,
1123,NO.3002-3004,3/14/20,Washington,OR,-123.098408,45.56006,,,,,,,,,,,,,,,,,,,,,
1124,NO.3005-3006,3/14/20,Riverside,CA,-115.993923,33.746112,,,,,,,,,,,,,,,,,,,,,
1126,NO.3009-3010,3/14/20,Douglas,NE,-96.155334,41.295352,,,,,,,,,,,,,,,,,,,,,
1129,NO.3015,3/14/20,Harris,TX,-95.393111,29.857628,,,,,,,,,,,,,,,,,,,,,
1131,NO.3017,3/14/20,Unassigned,LA,-118.220938,34.342772,,,,,,,,,,,,,,,,,,,,,
1132,NO.3018-3073,3/14/20,New York,NY,-74.00714,40.71455,,,,,,,,,,,,,,,,,,,,,
1134,NO.3080-3085,3/14/20,Washington. D.C.,DC,-77.04137,38.96678,,,,,,,,,,,,,,,,,,,,,
1135,NO.3086-3087,3/14/20,Fayette,KY,-84.458687,38.042272,,,,,,,,,,,,,,,,,,,,,
1136,NO.3088,3/14/20,Teton,ID,-111.207644,43.759452,,,,,,,,,,,,,,,,,,,,,
1137,NO.3089-3090,3/14/20,Missoula,MT,-113.923696,47.036554,,,,,,,,,,,,,,,,,,,,,
1138,NO.3091,3/14/20,Tarrant,TX,-97.291196,32.771544,,,,,,,,,,,,,,,,,,,,,
1140,NO.3093-3103,3/14/20,Nassau,NY,-73.588996,40.741652,,,,,,,,,,,,,,,,,,,,,
1145,NO.3013,3/14/20,Greene,MO,-93.342019,37.25804,,,,,,,,,,,,,,,,,,,,,
1147,NO.3015-3019,3/14/20,Jefferson,AL,-86.896489,33.554274,,,,,,,,,,,,,,,,,,,,,
1148,NO.3020,3/14/20,Dallas,IA,-94.039762,41.684817,,,,,,,,,,,,,,,,,,,,,
1150,NO.3022,3/14/20,Oakland,MI,-83.3858,42.660374,,,,,,,,,,,,,,,,,,,,,
1151,NO.3023,3/14/20,Macomb,MI,-82.932399,42.695834,,,,,,,,,,,,,,,,,,,,,
1152,NO.3024,3/14/20,Monroe,MI,-83.539319,41.929391,,,,,,,,,,,,,,,,,,,,,
1153,NO.3025,3/14/20,Wayne,MI,-83.282201,42.28208,,,,,,,,,,,,,,,,,,,,,
1154,NO.3026,3/14/20,Baldwin,AL,-87.723525,30.735891,,,,,,,,,,,,,,,,,,,,,
1155,NO.3027,3/14/20,Washtenaw,MI,-83.838776,42.253229,,,,,,,,,,,,,,,,,,,,,
1156,NO.3028,3/14/20,Sangamon,IL,-89.658887,39.758158,,,,,,,,,,,,,,,,,,,,,
1157,NO.3029,3/14/20,Baltimore City,MD,-76.611112,39.301941,,,,,,,,,,,,,,,,,,,,,
1159,NO.3031,3/14/20,Non-Florida-Resident,FL,-81.688649,28.566045,,,,,,,,,,,,,,,,,,,,,
1160,NO.3032-3033,3/14/20,Dallas,TX,-96.777794,32.766585,,,,,,,,,,,,,,,,,,,,,
1161,NO.3034,3/14/20,Unknown,ID,-116.90615,47.366159,,,,,,,,,,,,,,,,,,,,,
1163,NO.3036,3/14/20,San Luis Obispo,CA,-120.403577,35.38682,,,,,,,,,,,,,,,,,,,,,
1165,NO.3038,3/14/20,Tuscaloosa,AL,-87.525063,33.289569,,,,,,,,,,,,,,,,,,,,,
1167,NO.3040-3041,3/14/20,,ME,-69.590465,44.623738,,,,,,,,,,,,,,,,,,,,,
1168,NO.3042,3/14/20,San Diego,CA,-116.75641,33.033899,,,,,,,,,,,,,,,,,,,,,
1169,NO.3043-3051,3/14/20,Salt Lake,UT,-111.913406,40.66048,,,,,,,,,,,,,,,,,,,,,
1170,NO.3052,3/14/20,San Diego,CA,-116.75641,33.033899,,,,,,,,,,,,,,,,,,,,,
1171,NO.3053,3/14/20,Davis,UT,-111.980005,40.999736,,,,,,,,,,,,,,,,,,,,,
1176,NO.3058-3059,3/14/20,Salt Lake,UT,-111.913406,40.66048,,,,,,,,,,,,,,,,,,,,,
1177,NO.3060-3061,3/14/20,Non-Utah resident,UT,-111.659453,40.113564,,,,,,,,,,,,,,,,,,,,,
1179,NO.3063,3/14/20,Lucas,OH,-83.659777,41.619858,,,,,,,,,,,,,,,,,,,,,
1182,NO.3067,3/14/20,Maui County,HI,-156.564607,20.859535,,,,,,,,,,,,,,,,,,,,,
1183,NO.3068,3/14/20,Tuscarawas,OH,-81.473713,40.440907,,,,,,,,,,,,,,,,,,,,,
1185,NO.3070-3071,3/14/20,Westchester,NY,-73.756063,41.163198,,,,,,,,,,,,,,,,,,,,,
1188,NO.3081,3/14/20,Matagorda,TX,-95.986035,28.865085,,,,,,,,,,,,,,,,,,,,,
1189,NO.3082,3/14/20,Puerto Rico,PR,-66.468953,18.222606,,,,,,,,,,,,,,,,,,,,,
1193,NO.3086,3/15/20,New York,NY,-74.00714,40.71455,,,,,,,,,,,,,,,,,,,,,
1194,NO.3087,3/15/20,San Mateo,CA,-122.32863,37.422133,,,,,,,,,,,,,,,,,,,,,
1196,NO.3089,3/15/20,Union,NJ,-74.309527,40.659967,,,,,,,,,,,,,,,,,,,,,
1197,NO.3090,3/15/20,Volusia,FL,-81.162041,29.047508,,,,,,,,,,,,,,,,,,,,,
1198,NO.3091,3/15/20,Pasco,FL,-82.39152,28.309226,,,,,,,,,,,,,,,,,,,,,
1199,NO.3092,3/15/20,Clay,FL,-81.857782,29.983055,,,,,,,,,,,,,,,,,,,,,
1200,NO.3093,3/15/20,Hillsborough,FL,-82.307855,27.930231,,,,,,,,,,,,,,,,,,,,,
1201,NO.3094,3/15/20,Collier,FL,-81.340133,26.116256,,,,,,,,,,,,,,,,,,,,,
1202,NO.3095,3/15/20,Clay,FL,-81.857782,29.983055,,,,,,,,,,,,,,,,,,,,,
1203,NO.3096-3098,3/15/20,Duval,FL,-81.671966,30.331074,,,,,,,,,,,,,,,,,,,,,
1204,NO.3099,3/15/20,Lee,FL,-81.824685,26.579652,,,,,,,,,,,,,,,,,,,,,
1205,NO.3100,3/15/20,Miami-Dade,FL,-80.567908,25.614182,,,,,,,,,,,,,,,,,,,,,
1206,NO.3101,3/15/20,Miami-Dade,FL,-80.567908,25.614182,,,,,,,,,,,,,,,,,,,,,
1207,NO.3102,3/15/20,Miami-Dade,FL,-80.567908,25.614182,,,,,,,,,,,,,,,,,,,,,
1208,NO.3103,3/15/20,Miami-Dade,FL,-80.567908,25.614182,,,,,,,,,,,,,,,,,,,,,
1209,NO.3104,3/15/20,Miami-Dade,FL,-80.567908,25.614182,,,,,,,,,,,,,,,,,,,,,
1210,NO.3105,3/15/20,Orange,FL,-81.311713,28.510131,,,,,,,,,,,,,,,,,,,,,
1211,NO.3106,3/15/20,Citrus,FL,-82.465949,28.850779,,,,,,,,,,,,,,,,,,,,,
1212,NO.3107,3/15/20,Hamilton,IN,-86.052018,40.072514,,,,,,,,,,,,,,,,,,,,,
1213,NO.3108-3123,3/15/20,Broward,FL,-80.14357,26.12388,,,,,,,,,,,,,,,,,,,,,
1214,NO.3124-3127,3/15/20,Unassigned,AR,-92.438885,34.899924,,,,,,,,,,,,,,,,,,,,,
1215,NO.3128,3/15/20,Non-Florida-Resident,FL,-81.688649,28.566045,,,,,,,,,,,,,,,,,,,,,
1216,NO.3129-3131,3/15/20,Wake,NC,-78.650398,35.790108,,,,,,,,,,,,,,,,,,,,,
1217,NO.3132,3/15/20,Watauga,NC,-81.696456,36.231014,,,,,,,,,,,,,,,,,,,,,
1218,NO.3133-3138,3/15/20,Hennepin,MN,-93.474932,45.005758,,,,,,,,,,,,,,,,,,,,,
1219,NO.3139,3/15/20,Non-Florida-Resident,FL,-81.688649,28.566045,,,,,,,,,,,,,,,,,,,,,
1220,NO.3140,3/15/20,Hartford,CT,-72.732878,41.806461,,,,,,,,,,,,,,,,,,,,,
1221,NO.3141-3143,3/15/20,,GU,144.777628,13.443564,,,,,,,,,,,,,,,,,,,,,
1223,NO.3145-3147,3/15/20,Marion,IN,-86.138415,39.781744,,,,,,,,,,,,,,,,,,,,,
1225,NO.3149-3161,3/15/20,Orleans,LA,-78.231247,43.252101,,,,,,,,,,,,,,,,,,,,,
1226,NO.3162,3/15/20,Jefferson,LA,-90.1488652,29.8442458,,,,,,,,,,,,,,,,,,,,,
1227,NO.3163,3/15/20,Collier,FL,-81.340133,26.116256,,,,,,,,,,,,,,,,,,,,,
1228,NO.3164-3165,3/15/20,Mecklenburg,NC,-80.830806,35.241478,,,,,,,,,,,,,,,,,,,,,
1229,NO.3166-3172,3/15/20,Fulton,GA,-84.46711,33.790241,,,,,,,,,,,,,,,,,,,,,
1230,NO.3173,3/15/20,Anne Arundel,MD,-76.603286,39.008897,,,,,,,,,,,,,,,,,,,,,
1233,NO.3179-3183,3/15/20,Fond du Lac,WI,-88.492798,43.747318,,,,,,,,,,,,,,,,,,,,,
1234,NO.3184-3185,3/15/20,DeKalb,GA,-84.226465,33.771537,,,,,,,,,,,,,,,,,,,,,
1235,NO.3186-3187,3/15/20,Bartow,GA,-84.840729,34.237644,,,,,,,,,,,,,,,,,,,,,
1236,NO.3188,3/15/20,Cherokee,GA,-84.476244,34.24399,,,,,,,,,,,,,,,,,,,,,
1237,NO.3189,3/15/20,Fayette,GA,-84.494272,33.413909,,,,,,,,,,,,,,,,,,,,,
1238,NO.3190,3/15/20,Arlington,VA,-77.100957,38.878532,,,,,,,,,,,,,,,,,,,,,
1239,NO.3191-3192,3/15/20,Gwinnett,GA,-84.023587,33.961189,,,,,,,,,,,,,,,,,,,,,
1240,NO.3193-3194,3/15/20,Clayton,GA,-84.357699,33.541973,,,,,,,,,,,,,,,,,,,,,
1241,NO.3195,3/15/20,Lowndes,GA,-83.267696,30.833628,,,,,,,,,,,,,,,,,,,,,
1243,NO.3197,3/15/20,Newton,GA,-83.850218,33.555007,,,,,,,,,,,,,,,,,,,,,
1244,NO.3198-3199,3/15/20,Franklin,OH,-83.009331,39.969471,,,,,,,,,,,,,,,,,,,,,
1247,NO.3207,3/15/20,Cleveland,OK,-97.326391,35.203094,,,,,,,,,,,,,,,,,,,,,
1248,NO.3208,3/15/20,Payne,OK,-96.975782,36.077327,,,,,,,,,,,,,,,,,,,,,
1249,NO.3209-3312,3/15/20,Albany,NY,-73.973605,42.600135,,,,,,,,,,,,,,,,,,,,,
1251,NO.3314-3315,3/15/20,Prince George's,MD,-76.845871,38.828386,,,,,,,,,,,,,,,,,,,,,
1253,NO.3317,3/15/20,Alexandria City,VA,-77.08623,38.818386,,,,,,,,,,,,,,,,,,,,,
1254,NO.3318,3/15/20,Hudson,NJ,-74.07411,40.740342,,,,,,,,,,,,,,,,,,,,,
1255,NO.3319,3/15/20,Bexar,TX,-98.520008,29.448921,,,,,,,,,,,,,,,,,,,,,
1256,NO.3320-3329,3/15/20,Unassigned,NY,-73.968258,40.776842,,,,,,,,,,,,,,,,,,,,,
1257,NO.3330,3/15/20,Allegheny,PA,-79.980434,40.468598,,,,,,,,,,,,,,,,,,,,,
1261,NO.3335,3/15/20,Delaware,PA,-75.398986,39.916725,3/15/20,,MS,-91.055957,33.363681,The Mississippi State Department of Health reported four new cases of the coronavirus in Mississippi. The new cases are in Copiah,"Hinds and Pearl River counties. This brings the state‰Ûªs total number of cases to 10. placeholder""
1268,NO.3351-3359""",3/15/20,San Francisco,CA,-122.41844,37.7794,San Francisco new 9 cases,"total counts 37.""
1269,NO.3360-3382""",3/15/20,Santa Clara,CA,-121.694797,37.23174,23 new cases of COVID-19 in Santa Clara County. This brings the total number of cases to 114.,twitter.com
1270,NO.3383-3385,3/15/20,Dallas,TX,-96.777794,32.766585,,,,,,,,,,,,,,,,,,,,,
1274,NO.3394-3395,3/15/20,Butler,OH,-84.576168,39.438638,,,,,,,,,,,,,,,,,,,,,
1275,NO.3396,3/15/20,Puerto Rico,PR,-66.468953,18.222606,,,,,,,,,,,,,,,,,,,,,
1276,NO.3397,3/15/20,Horry,SC,-78.996573,33.921293,,,,,,,,,,,,,,,,,,,,,
1277,NO.3398-3400,3/15/20,Cuyahoga,OH,-81.658582,41.424415,,,,,,,,,,,,,,,,,,,,,
1278,NO.3401,3/15/20,Collin,TX,-96.572725,33.18804,,,,,,,,,,,,,,,,,,,,,
1279,NO.3402,3/15/20,Wilson,NC,-77.918481,35.704816,,,,,,,,,,,,,,,,,,,,,
1280,NO.3403,3/15/20,Medina,OH,-81.899685,41.117572,,,,,,,,,,,,,,,,,,,,,
1282,NO.3405,3/15/20,Dakota,MN,-93.066678,44.670981,,,,,,,,,,,,,,,,,,,,,
1283,NO.3406,3/15/20,Washington,MN,-92.883379,45.041101,,,,,,,,,,,,,,,,,,,,,
1284,NO.3407,3/15/20,Waseca,MN,-93.587268,44.022124,,,,,,,,,,,,,,,,,,,,,
1285,NO.3408-3410,3/15/20,Ramsey,MN,-93.099617,45.018122,,,,,,,,,,,,,,,,,,,,,
1286,NO.3411,3/15/20,Anoka,MN,-93.246042,45.273721,,,,,,,,,,,,,,,,,,,,,
1287,NO.3412,3/15/20,Olmsted,MN,-92.401818,44.003799,,,,,,,,,,,,,,,,,,,,,
1288,NO.3413-3416,3/15/20,Bergen,NJ,-74.074442,40.959491,,,,,,,,,,,,,,,,,,,,,
1289,NO.3417-3420,3/15/20,Hudson,NJ,-74.07411,40.740342,,,,,,,,,,,,,,,,,,,,,
1290,NO.3421-3424,3/15/20,Monmouth,NJ,-74.221946,40.260041,,,,,,,,,,,,,,,,,,,,,
1291,NO.3425-3428,3/15/20,Essex,NJ,-74.247601,40.787793,,,,,,,,,,,,,,,,,,,,,
1292,NO.3429-3431,3/15/20,Passaic,NJ,-74.301057,41.034347,,,,,,,,,,,,,,,,,,,,,
1293,NO.3432-3434,3/15/20,Davidson,TN,-86.784757,36.169561,,,,,,,,,,,,,,,,,,,,,
1294,NO.3435,3/15/20,Allegheny,PA,-79.980434,40.468598,,,,,,,,,,,,,,,,,,,,,
1295,NO.3436,3/15/20,Union,NJ,-74.309527,40.659967,,,,,,,,,,,,,,,,,,,,,
1296,NO.3437-3440,3/15/20,Williamson,TN,-86.89864,35.893827,,,,,,,,,,,,,,,,,,,,,
1297,NO.3441,3/15/20,Ocean,NJ,-74.296965,39.909274,,,,,,,,,,,,,,,,,,,,,
1298,NO.3442-3443,3/15/20,Sonoma,CA,-122.887397,38.528618,,,,,,,,,,,,,,,,,,,,,
1299,NO.3444,3/15/20,Bennington,VT,-73.093067,43.035346,,,,,,,,,,,,,,,,,,,,,
1300,NO.3445,3/15/20,Windsor,VT,-72.586093,43.580051,,,,,,,,,,,,,,,,,,,,,
1301,NO.3446,3/15/20,Chittenden,VT,-73.05405,44.457995,,,,,,,,,,,,,,,,,,,,,
1302,NO.3447-3448,3/15/20,Travis,TX,-97.78219,30.334623,,,,,,,,,,,,,,,,,,,,,
1303,NO.3449,3/15/20,Davis,UT,-111.980005,40.999736,,,,,,,,,,,,,,,,,,,,,
1304,NO.3450,3/15/20,Burlington,NJ,-74.667901,39.877518,,,,,,,,,,,,,,,,,,,,,
1305,NO.3451-3452,3/15/20,Non-Utah resident,UT,-111.659453,40.113564,,,,,,,,,,,,,,,,,,,,,
1307,NO.3454,3/15/20,Morris,NJ,-74.544274,40.862019,,,,,,,,,,,,,,,,,,,,,
1308,NO.3455-3456,3/15/20,Boulder,CO,-105.357722,40.092423,,,,,,,,,,,,,,,,,,,,,
1309,NO.3457,3/15/20,Middlesex,NJ,-74.411108,40.439575,,,,,,,,,,,,,,,,,,,,,
1311,NO.3460,3/15/20,El Paso,TX,-106.234789,31.76871,,,,,,,,,,,,,,,,,,,,,
1312,NO.3461,3/15/20,Howard,MD,-76.931258,39.251128,,,,,,,,,,,,,,,,,,,,,
1313,NO.3462-3477,3/15/20,Los Angeles,CA,-118.220938,34.342772,,,,,,,,,,,,,,,,,,,,,
1314,NO.3478-3480,3/15/20,Washoe,NV,-119.665991,40.68696,,,,,,,,,,,,,,,,,,,,,
1315,NO.3481-3482,3/15/20,Weld,CO,-104.392435,40.554773,,,,,,,,,,,,,,,,,,,,,
1318,NO.3487,3/15/20,Champaign,IL,-88.199157,40.140087,,,,,,,,,,,,,,,,,,,,,
1319,NO.3488-3491,3/15/20,Denver,CO,-104.9847,39.73915,,,,,,,,,,,,,,,,,,,,,
1320,NO.3492-3495,3/15/20,Douglas,CO,-104.929571,39.329666,,,,,,,,,,,,,,,,,,,,,
1321,NO.3496-3499,3/15/20,Eagle,CO,-106.695148,39.62785,,,,,,,,,,,,,,,,,,,,,
1322,NO.3500,3/15/20,El Paso,CO,-104.525514,38.832127,,,,,,,,,,,,,,,,,,,,,
1323,NO.3501-3509,3/15/20,,MA,-71.799869,42.670223,,,,,,,,,,,,,,,,,,,,,
1324,NO.3510-3511,3/15/20,Gunnison,CO,-107.031584,38.666753,,,,,,,,,,,,,,,,,,,,,
1325,NO.3512,3/15/20,Jefferson,AL,-86.896489,33.554274,,,,,,,,,,,,,,,,,,,,,
1327,NO.3517-3526,3/15/20,Middlesex,MA,-71.391791,42.485594,,,,,,,,,,,,,,,,,,,,,
1328,NO.3527-3529,3/15/20,Norfolk,MA,-71.211596,42.160531,,,,,,,,,,,,,,,,,,,,,
1329,NO.3530-3533,3/15/20,Suffolk,MA,-71.075374,42.331892,,,,,,,,,,,,,,,,,,,,,